#FIG 3.2  Produced by xfig version 3.2.8b
Landscape
Center
Metric
A4
100.00
Single
-2
1200 2
2 5 0 1 0 -1 50 -1 -1 0.000 0 0 -1 0 0 5
	0 noc-att.png
	 450 450 6204 450 6204 2815 450 2815 450 450
2 1 0 8 4 7 40 -1 -1 0.000 0 1 7 0 0 2
	 810 3015 5850 270
2 1 0 8 4 7 40 -1 -1 0.000 0 1 7 0 0 2
	 810 270 5850 3015
