#FIG 3.2  Produced by xfig version 3.2.5c
Portrait
Center
Metric
A4      
100.00
Single
-2
1200 2
0 32 #c6b797
0 33 #eff8ff
0 34 #dccba6
0 35 #404040
0 36 #808080
0 37 #c0c0c0
0 38 #e0e0e0
0 39 #8e8f8e
0 40 #aaaaaa
0 41 #555555
0 42 #bebebe
0 43 #515151
0 44 #e7e3e7
0 45 #000049
0 46 #797979
0 47 #303430
0 48 #414141
0 49 #c7b696
0 50 #8e8e8e
0 51 #414541
0 52 #8e8e8e
0 53 #cccccc
0 54 #868286
0 55 #c7c3c7
0 56 #444444
0 57 #868686
0 58 #c7c7c7
0 59 #e7e7e7
0 60 #f7f7f7
0 61 #9e9e9e
0 62 #717571
0 63 #effbff
0 64 #666666
0 65 #000000
0 66 #ffffff
0 67 #dd9d93
0 68 #f1ece0
0 69 #c3c3c3
0 70 #e2c8a8
0 71 #e1e1e1
0 72 #d2d2d2
0 73 #ededed
0 74 #da7a1a
0 75 #f1e41a
0 76 #887dc2
0 77 #d6d6d6
0 78 #8c8ca5
0 79 #4a4a4a
0 80 #5a5a5a
0 81 #636363
0 82 #b79b73
0 83 #4193ff
0 84 #bf703b
0 85 #db7700
0 86 #dab800
0 87 #006400
0 88 #5a6b3b
0 89 #d3d3d3
0 90 #8e8ea4
0 91 #f3b95d
0 92 #89996b
0 93 #646464
0 94 #b7e6ff
0 95 #86c0ec
0 96 #bdbdbd
0 97 #d39552
0 98 #98d2fe
0 99 #8c6b6b
0 100 #eeeeee
0 101 #848484
0 102 #7b7b7b
0 103 #005a00
0 104 #e77373
0 105 #ffcb31
0 106 #29794a
0 107 #de2821
0 108 #2159c6
0 109 #f8f8f8
0 110 #e6e6e6
0 111 #a5b5c6
0 112 #6b6b94
0 113 #846b6b
0 114 #529c4a
0 115 #d6e7e7
0 116 #526363
0 117 #186b4a
0 118 #21845a
0 119 #f3eed3
0 120 #f5ae5d
0 121 #95ce99
0 122 #b5157d
0 123 #5a6b39
0 124 #8c9c6b
0 125 #8c9c7b
0 126 #184a18
0 127 #adadad
0 128 #f7bd5a
0 129 #636b9c
0 130 #de0000
0 131 #adadad
0 132 #f7bd5a
0 133 #adadad
0 134 #f7bd5a
0 135 #636b9c
0 136 #526b29
0 137 #949494
0 138 #006300
0 139 #9ca5b5
0 140 #ff9400
0 141 #ff9400
0 142 #00634a
0 143 #7b844a
0 144 #63737b
0 145 #e7bd7b
0 146 #184a18
0 147 #f7bd5a
0 148 #dedede
0 149 #f76b00
1 3 0 1 7 1 50 -1 20 0.000 1 0.0000 2025 1440 225 225 2025 1440 2250 1440
1 3 0 0 0 0 51 -1 20 0.000 1 0.0000 2070 1485 225 225 2070 1485 2295 1485
2 1 0 1 -1 -1 0 0 -1 0.000 0 0 -1 0 0 2
	 225 765 4680 765
2 1 0 1 -1 -1 0 0 -1 0.000 0 0 -1 0 0 2
	 2025 765 2025 1215
2 1 0 1 -1 -1 0 0 -1 0.000 0 0 -1 0 0 2
	 225 2115 4680 2115
2 1 0 1 -1 -1 0 0 -1 0.000 0 0 -1 0 0 2
	 2025 1665 2025 2115
2 1 0 2 6 7 49 -1 -1 0.000 0 0 7 1 0 3
	1 1 1.00 45.00 60.00
	 2070 1260 2070 1395 2205 1395
2 1 0 2 6 7 49 -1 -1 0.000 0 0 7 1 0 3
	1 1 1.00 45.00 60.00
	 2205 1485 2070 1485 2070 1620
2 1 0 2 6 7 49 -1 -1 0.000 0 0 7 1 0 3
	1 1 1.00 45.00 60.00
	 1980 1620 1980 1485 1845 1485
2 1 0 2 6 7 49 -1 -1 0.000 0 0 7 1 0 3
	1 1 1.00 45.00 60.00
	 1845 1395 1980 1395 1980 1260
4 0 -1 0 0 16 10 0.0000 4 120 1125 2070 1980 198.51.100.254\001
4 0 -1 0 0 16 10 0.0000 4 120 945 450 2340 198.51.100.0\001
4 0 -1 0 0 16 10 0.0000 4 120 855 2070 1080 203.0.113.3\001
4 0 -1 0 0 16 10 0.0000 4 120 855 450 720 203.0.113.0\001
4 0 -1 0 0 16 11 0.0000 4 165 1725 2340 1485 routeur.example.com\001
