#FIG 3.2  Produced by xfig version 3.2.8b
Portrait
Center
Metric
A4
100.00
Single
-2
1200 2
2 1 0 1 -1 -1 50 0 -1 0.000 0 0 -1 1 0 2
	1 1 1.00 45.00 90.00
	 1755 450 1755 675
2 1 0 1 -1 -1 50 0 -1 0.000 0 0 -1 1 0 2
	1 1 1.00 45.00 90.00
	 1485 225 1485 675
2 1 0 1 -1 -1 50 0 -1 0.000 0 0 -1 0 0 2
	 1620 810 1620 900
2 1 0 1 -1 -1 50 0 -1 0.000 0 0 -1 0 0 2
	 1890 810 1890 900
2 1 0 1 -1 -1 50 0 -1 0.000 0 0 -1 0 0 4
	 1350 675 1350 900 4050 900 4050 675
2 1 2 1 -1 -1 50 0 -1 3.000 0 0 -1 0 0 2
	 4050 900 4275 1575
2 1 0 1 -1 -1 50 0 -1 0.000 0 0 -1 0 0 4
	 225 1575 225 1800 4275 1800 4275 1575
2 1 0 1 -1 -1 50 0 -1 0.000 0 0 -1 1 0 2
	1 1 1.00 45.00 90.00
	 360 1125 360 1575
2 1 0 1 -1 -1 50 0 -1 0.000 0 0 -1 1 0 2
	1 1 1.00 45.00 90.00
	 630 1350 630 1575
2 1 0 1 -1 -1 50 0 -1 0.000 0 0 -1 0 0 2
	 495 1710 495 1800
2 1 0 1 -1 -1 50 0 -1 0.000 0 0 -1 0 0 2
	 765 1710 765 1800
2 1 2 1 -1 -1 50 0 -1 3.000 0 0 -1 0 0 2
	 1350 900 765 1575
2 2 0 0 0 0 52 -1 20 0.000 0 0 -1 0 0 5
	 1395 720 4095 720 4095 945 1395 945 1395 720
2 2 0 0 0 0 52 -1 20 0.000 0 0 -1 0 0 5
	 270 1620 4320 1620 4320 1845 270 1845 270 1620
2 2 0 0 0 11 51 -1 34 0.000 0 0 -1 0 0 5
	 1350 675 4050 675 4050 900 1350 900 1350 675
2 2 0 0 0 11 51 -1 34 0.000 0 0 7 0 0 5
	 225 1575 4275 1575 4275 1800 225 1800 225 1575
4 0 -1 50 0 16 10 0.0000 4 150 915 1485 180 Dest = IP(C)\001
4 0 -1 50 0 16 10 0.0000 4 150 1080 1755 405 Source = IP(A)\001
4 2 -1 50 0 16 10 0.0000 4 150 1140 4050 1125 Datagramme IP\001
4 2 -1 50 0 16 10 0.0000 4 120 1140 4275 2025 Trame Ethernet\001
4 0 -1 50 0 16 10 0.0000 4 150 1170 630 1305 Source = Eth(A)\001
4 0 -1 50 0 16 10 0.0000 4 150 990 360 1080 Dest = Eth(B)\001
