#FIG 3.2  Produced by xfig version 3.2.5c
Portrait
Center
Metric
A4      
100.00
Single
-2
1200 2
6 2745 1440 3555 1620
3 0 0 1 -1 7 50 0 -1 0.000 0 0 0 6
	 2745 1440 2790 1530 2880 1530 3015 1530 3105 1530 3150 1620
	 0.000 1.000 1.000 1.000 1.000 0.000
3 0 0 1 -1 7 50 0 -1 0.000 0 0 0 6
	 3555 1440 3510 1530 3420 1530 3285 1530 3195 1530 3150 1620
	 0.000 1.000 1.000 1.000 1.000 0.000
-6
6 3645 1440 4455 1620
3 0 0 1 -1 7 50 0 -1 0.000 0 0 0 6
	 3645 1440 3690 1530 3780 1530 3915 1530 4005 1530 4050 1620
	 0.000 1.000 1.000 1.000 1.000 0.000
3 0 0 1 -1 7 50 0 -1 0.000 0 0 0 6
	 4455 1440 4410 1530 4320 1530 4185 1530 4095 1530 4050 1620
	 0.000 1.000 1.000 1.000 1.000 0.000
-6
2 2 0 1 -1 1 51 -1 38 0.000 0 0 7 0 0 5
	 900 1080 4500 1080 4500 1350 900 1350 900 1080
2 2 0 1 -1 0 52 -1 20 0.000 0 0 7 0 0 5
	 945 1125 4545 1125 4545 1395 945 1395 945 1125
2 1 2 1 -1 7 50 0 -1 3.000 0 0 -1 0 0 2
	 4500 450 4500 1080
2 1 2 1 -1 7 50 0 -1 3.000 0 0 -1 0 0 2
	 900 450 900 1080
2 1 0 1 -1 -1 50 0 -1 0.000 0 0 -1 0 0 2
	 3600 1215 3600 1350
2 1 0 1 -1 -1 50 0 -1 0.000 0 0 -1 0 0 2
	 2700 1215 2700 1350
2 1 0 1 -1 -1 50 0 -1 0.000 0 0 -1 0 0 2
	 2700 315 2700 450
2 2 0 1 -1 1 51 -1 38 0.000 0 0 7 0 0 5
	 900 180 4500 180 4500 450 900 450 900 180
2 2 0 1 -1 0 52 -1 20 0.000 0 0 7 0 0 5
	 945 225 4545 225 4545 495 945 495 945 225
2 1 2 1 -1 7 50 0 -1 3.000 0 0 -1 0 0 2
	 2700 450 2700 1215
3 0 0 1 -1 7 50 0 -1 0.000 0 0 0 6
	 2655 540 2610 630 2520 630 1935 630 1845 630 1800 720
	 0.000 1.000 1.000 1.000 1.000 0.000
3 0 0 1 -1 7 50 0 -1 0.000 0 0 0 6
	 2745 540 2790 630 2880 630 3465 630 3555 630 3600 720
	 0.000 1.000 1.000 1.000 1.000 0.000
3 0 0 1 -1 7 50 0 -1 0.000 0 0 0 6
	 4455 540 4410 630 4320 630 3735 630 3645 630 3600 720
	 0.000 1.000 1.000 1.000 1.000 0.000
3 0 0 1 -1 7 50 0 -1 0.000 0 0 0 6
	 945 1440 990 1530 1080 1530 1665 1530 1755 1530 1800 1620
	 0.000 1.000 1.000 1.000 1.000 0.000
3 0 0 1 -1 7 50 0 -1 0.000 0 0 0 6
	 2655 1440 2610 1530 2520 1530 1935 1530 1845 1530 1800 1620
	 0.000 1.000 1.000 1.000 1.000 0.000
3 0 0 1 -1 7 50 0 -1 0.000 0 0 0 6
	 945 540 990 630 1080 630 1665 630 1755 630 1800 720
	 0.000 1.000 1.000 1.000 1.000 0.000
4 2 -1 50 0 16 10 0.0000 4 120 405 810 360 avant\001
4 1 -1 50 0 16 10 0.0000 4 120 510 1800 900 r\351seau\001
4 1 -1 50 0 16 10 0.0000 4 120 615 3600 900 machine\001
4 1 -1 50 0 16 10 0.0000 4 120 510 1800 1800 r\351seau\001
4 1 -1 50 0 16 10 0.0000 4 120 930 3150 1800 sous-r\351seau\001
4 1 -1 50 0 16 10 0.0000 4 120 615 4050 1800 machine\001
4 2 -1 50 0 16 10 0.0000 4 150 420 810 1260 apr\350s\001
