#FIG 3.2
Portrait
Center
Metric
A4      
100.00
Single
-2
1200 2
2 1 0 1 -1 7 0 0 -1 0.000 0 0 -1 0 0 2
	 1125 720 1125 1710
2 1 0 1 -1 7 0 0 -1 0.000 0 0 -1 0 0 2
	 900 990 1125 1710
2 1 0 1 -1 7 0 0 -1 0.000 0 0 -1 0 0 2
	 855 1305 1125 1710
2 1 0 1 -1 7 0 0 -1 0.000 0 0 -1 0 0 2
	 1125 1845 360 2115
2 1 0 1 -1 7 0 0 -1 0.000 0 0 -1 0 0 2
	 1125 1845 1035 2115
2 1 0 1 -1 7 0 0 -1 0.000 0 0 -1 0 0 2
	 1755 1845 1575 2115
2 1 0 1 -1 7 0 0 -1 0.000 0 0 -1 0 0 2
	 1620 2295 1620 2610
2 1 0 1 -1 7 0 0 -1 0.000 0 0 -1 0 0 2
	 1755 1710 1980 1035
2 1 0 1 -1 7 0 0 -1 0.000 0 0 -1 0 0 2
	 1755 1710 2025 1305
2 1 0 1 -1 7 0 0 -1 0.000 0 0 -1 0 0 2
	 1755 720 1755 1710
2 1 1 1 -1 7 0 0 -1 2.000 0 0 -1 0 0 2
	 1125 1710 1755 720
2 1 1 1 -1 7 0 0 -1 2.000 0 0 -1 0 0 2
	 1215 1755 1620 1755
2 1 1 1 -1 7 0 0 -1 2.000 0 0 -1 0 0 2
	 1125 1710 1980 1035
2 1 1 1 -1 7 0 0 -1 2.000 0 0 -1 0 0 2
	 1125 720 1755 1710
2 1 1 1 -1 7 0 0 -1 2.000 0 0 -1 0 0 2
	 1755 1845 2160 2115
2 1 0 1 -1 7 0 0 -1 0.000 0 0 -1 0 0 2
	 1125 1845 2160 2115
2 1 1 1 -1 7 0 0 -1 2.000 0 0 -1 0 0 2
	 1118 1855 1575 2115
4 1 -1 0 0 16 6 0.0000 4 90 645 540 990 MAE/PSI/Vienne\001
4 1 -1 0 0 16 6 0.0000 4 90 870 765 675 MAE/PSI/Washington\001
4 1 -1 0 0 16 6 0.0000 4 90 480 1935 675 ACO/Vienne\001
4 1 -1 0 0 16 6 0.0000 4 90 300 2115 990 Egypte\001
4 1 -1 0 0 16 6 0.0000 4 105 570 2340 1305 CERN/Gen\350ve\001
4 1 -1 0 0 16 6 0.0000 4 90 735 450 1305 Ebone/Stockholm\001
4 1 -1 0 0 16 6 0.0000 4 75 285 1035 1800 Jussieu\001
4 1 -1 0 0 16 6 0.0000 4 60 180 1755 1800 EDF\001
4 1 -1 0 0 16 6 0.0000 4 90 585 945 2250 Polytechnique\001
4 1 -1 0 0 16 6 0.0000 4 90 240 270 2250 UVSQ\001
4 1 -1 0 0 16 6 0.0000 4 60 210 1620 2250 INRIA\001
4 1 -1 0 0 16 6 0.0000 4 60 225 2205 2250 ENST\001
4 1 -1 0 0 16 6 0.0000 4 60 210 1620 2700 IRISA\001
