#FIG 3.2  Produced by xfig version 3.2.5c
Portrait
Center
Metric
A4      
100.00
Single
-2
1200 2
2 1 0 1 -1 -1 50 0 -1 0.000 0 0 -1 0 0 2
	 225 450 3825 450
2 1 0 1 -1 -1 50 0 -1 0.000 0 0 -1 0 0 2
	 225 675 3825 675
2 1 0 1 -1 -1 50 0 -1 0.000 0 0 -1 0 0 2
	 2025 225 2025 450
2 1 0 1 -1 7 50 0 -1 0.000 0 0 -1 0 0 2
	 1125 225 1125 450
2 1 0 1 -1 7 50 0 -1 0.000 0 0 -1 0 0 1
	 585 225
2 1 0 1 -1 7 50 0 -1 0.000 0 0 -1 0 0 2
	 1035 225 1035 450
2 1 0 1 -1 7 50 0 -1 0.000 0 0 -1 0 0 2
	 945 225 945 450
2 1 0 1 -1 7 50 0 -1 0.000 0 0 -1 0 0 2
	 630 225 630 450
2 2 0 1 0 6 51 -1 36 0.000 0 0 -1 0 0 5
	 225 225 3825 225 3825 1125 225 1125 225 225
2 2 0 1 0 0 52 -1 20 0.000 0 0 -1 0 0 5
	 270 270 3870 270 3870 1170 270 1170 270 270
4 1 -1 50 0 16 7 0.0000 4 120 795 2025 630 Original Source\001
4 1 -1 50 0 16 7 0.0000 4 120 1560 2025 855 Optional Authentication Header\001
4 1 -1 50 0 16 8 0.0000 4 15 225 2025 990 . . .\001
4 1 -1 50 0 16 7 0.0000 4 120 885 2925 405 Message Id Hash\001
4 1 -1 50 0 16 7 0.0000 4 90 435 1575 405 Auth Len\001
4 1 -1 50 0 16 7 0.0000 4 90 90 1080 405 C\001
4 1 -1 50 0 16 7 0.0000 4 90 75 990 405 E\001
4 1 -1 50 0 16 7 0.0000 4 120 255 810 405 Type\001
4 1 -1 50 0 16 7 0.0000 4 90 390 450 405 Version\001
4 2 -1 50 0 16 8 0.0000 4 90 150 3825 180 31\001
4 0 -1 50 0 16 8 0.0000 4 90 150 2925 180 24\001
4 0 -1 50 0 16 8 0.0000 4 90 150 2025 180 16\001
4 0 -1 50 0 16 8 0.0000 4 90 75 1125 180 8\001
4 0 -1 50 0 16 8 0.0000 4 90 75 675 180 4\001
4 0 -1 50 0 16 8 0.0000 4 90 75 225 180 0\001
