#FIG 3.2  Produced by xfig version 3.2.5c
Landscape
Center
Metric
A4      
100.00
Single
-2
1200 2
0 32 #808080
0 33 #c0c0c0
0 34 #e0e0e0
0 35 #9e9e9e
0 36 #868286
0 37 #717571
0 38 #aaaaaa
0 39 #aeaaae
0 40 #555555
0 41 #8e8e8e
0 42 #444444
0 43 #c7c3c7
0 44 #e7e3e7
0 45 #c7c7c7
0 46 #757575
0 47 #f3f3f3
0 48 #414541
0 49 #666666
0 50 #8e8f8e
0 51 #c6b797
0 52 #eff8ff
0 53 #dccba6
0 54 #404040
0 55 #565151
0 56 #d7d7d7
0 57 #85807d
0 58 #d2d2d2
0 59 #3a3a3a
0 60 #4573aa
0 61 #aeaeae
0 62 #7b79a5
0 63 #73758c
0 64 #f7f7f7
0 65 #635dce
0 66 #bebebe
0 67 #515151
0 68 #000049
0 69 #797979
0 70 #303430
0 71 #414141
0 72 #c7b696
0 73 #868686
0 74 #e7e7e7
0 75 #effbff
0 76 #cccccc
0 77 #000000
0 78 #ffffff
0 79 #dd9d93
0 80 #f1ece0
0 81 #c3c3c3
0 82 #e2c8a8
0 83 #e1e1e1
0 84 #ededed
0 85 #da7a1a
0 86 #f1e41a
0 87 #887dc2
0 88 #d6d6d6
0 89 #8c8ca5
0 90 #4a4a4a
0 91 #5a5a5a
0 92 #636363
0 93 #b79b73
0 94 #4193ff
0 95 #bf703b
0 96 #db7700
0 97 #dab800
0 98 #006400
0 99 #5a6b3b
0 100 #d3d3d3
0 101 #8e8ea4
0 102 #f3b95d
0 103 #89996b
0 104 #646464
0 105 #b7e6ff
0 106 #86c0ec
0 107 #bdbdbd
0 108 #d39552
0 109 #98d2fe
0 110 #8c6b6b
0 111 #8c9c6b
0 112 #f76b00
0 113 #5a6b39
0 114 #8c9c6b
0 115 #8c9c7b
0 116 #184a18
0 117 #adadad
0 118 #f7bd5a
0 119 #636b9c
0 120 #de0000
0 121 #adadad
0 122 #f3eed3
0 123 #f5ae5d
0 124 #95ce99
0 125 #b5157d
0 126 #eeeeee
0 127 #848484
0 128 #7b7b7b
0 129 #005a00
0 130 #e77373
0 131 #ffcb31
0 132 #29794a
0 133 #de2821
0 134 #2159c6
0 135 #f8f8f8
0 136 #e6e6e6
0 137 #a5b5c6
0 138 #6b6b94
0 139 #846b6b
0 140 #529c4a
0 141 #d6e7e7
0 142 #526363
0 143 #186b4a
0 144 #21845a
0 145 #e7bd7b
0 146 #dedede
0 147 #526b29
0 148 #949494
0 149 #006300
0 150 #9ca5b5
0 151 #ff9400
0 152 #ff9400
0 153 #00634a
0 154 #7b844a
0 155 #63737b
6 2318 1035 2925 1350
6 2409 1126 2909 1233
6 2409 1126 2909 1233
2 1 0 1 50 -1 19 0 -1 0.000 2 0 -1 0 0 3
	 2414 1202 2414 1132 2900 1132
2 1 0 1 7 50 19 0 -1 0.000 2 0 -1 0 0 3
	 2414 1202 2900 1202 2900 1132
-6
-6
6 2766 1126 2837 1198
2 1 0 1 7 50 19 0 -1 0.000 2 0 -1 0 0 2
	 2804 1196 2804 1128
2 1 0 1 50 -1 19 0 -1 0.000 2 0 -1 0 0 2
	 2795 1196 2795 1128
-6
6 2659 1126 2694 1198
2 1 0 1 7 50 19 0 -1 0.000 2 0 -1 0 0 2
	 2690 1196 2690 1128
2 1 0 1 50 -1 19 0 -1 0.000 2 0 -1 0 0 2
	 2681 1196 2681 1128
-6
6 2837 1233 2909 1269
2 1 0 1 7 50 19 0 -1 0.000 2 0 -1 0 0 3
	 2842 1254 2842 1245 2879 1245
2 1 0 1 50 -1 19 0 -1 0.000 2 0 -1 0 0 3
	 2842 1254 2879 1254 2879 1245
-6
6 2409 1269 2909 1340
2 1 0 1 50 32 18 0 -1 0.000 2 0 -1 0 0 3
	 2427 1323 2427 1287 2891 1287
2 1 0 1 34 32 18 0 -1 0.000 2 0 -1 0 0 3
	 2427 1323 2891 1323 2891 1287
-6
1 1 0 1 42 4 2 0 20 0.000 1 0.0000 2444 1162 11 12 2444 1162 2456 1174
1 1 0 1 42 2 2 0 20 0.000 1 0.0000 2480 1162 11 12 2480 1162 2492 1174
2 3 0 1 42 42 6 0 20 0.000 1 0 -1 0 0 5
	 2409 1126 2337 1055 2337 1269 2409 1340 2409 1126
2 3 0 1 42 50 26 0 20 0.000 1 0 -1 0 0 5
	 2409 1126 2337 1055 2837 1055 2909 1126 2409 1126
2 2 0 1 42 34 26 0 20 0.000 1 0 -1 0 0 5
	 2409 1126 2909 1126 2909 1340 2409 1340 2409 1126
2 2 0 0 50 13 19 0 20 0.000 2 0 -1 0 0 5
	 2807 1252 2784 1252 2784 1239 2807 1239 2807 1252
2 2 0 0 50 6 19 0 20 0.000 2 0 -1 0 0 5
	 2766 1252 2742 1252 2742 1239 2766 1239 2766 1252
-6
# Server box
6 4770 900 5085 1448
6 4805 1098 5050 1366
6 4805 1098 5050 1121
2 2 0 0 0 34 19 0 20 0.000 0 1 -1 0 0 5
	 4805 1110 5050 1110 5050 1121 4805 1121 4805 1110
2 2 0 0 0 54 19 0 20 0.000 0 1 -1 0 0 5
	 4805 1098 5050 1098 5050 1110 4805 1110 4805 1098
-6
6 4805 1133 5050 1157
2 2 0 0 0 34 19 0 20 0.000 0 1 -1 0 0 5
	 4805 1145 5050 1145 5050 1157 4805 1157 4805 1145
2 2 0 0 0 54 19 0 20 0.000 0 1 -1 0 0 5
	 4805 1133 5050 1133 5050 1145 4805 1145 4805 1133
-6
6 4805 1168 5050 1191
2 2 0 0 0 34 19 0 20 0.000 0 1 -1 0 0 5
	 4805 1180 5050 1180 5050 1191 4805 1191 4805 1180
2 2 0 0 0 54 19 0 20 0.000 0 1 -1 0 0 5
	 4805 1168 5050 1168 5050 1180 4805 1180 4805 1168
-6
6 4805 1203 5050 1226
2 2 0 0 0 34 19 0 20 0.000 0 1 -1 0 0 5
	 4805 1215 5050 1215 5050 1226 4805 1226 4805 1215
2 2 0 0 0 54 19 0 20 0.000 0 1 -1 0 0 5
	 4805 1203 5050 1203 5050 1215 4805 1215 4805 1203
-6
6 4805 1238 5050 1261
2 2 0 0 0 34 19 0 20 0.000 0 1 -1 0 0 5
	 4805 1250 5050 1250 5050 1261 4805 1261 4805 1250
2 2 0 0 0 54 19 0 20 0.000 0 1 -1 0 0 5
	 4805 1238 5050 1238 5050 1250 4805 1250 4805 1238
-6
6 4805 1273 5050 1296
2 2 0 0 0 34 19 0 20 0.000 0 1 -1 0 0 5
	 4805 1285 5050 1285 5050 1296 4805 1296 4805 1285
2 2 0 0 0 54 19 0 20 0.000 0 1 -1 0 0 5
	 4805 1273 5050 1273 5050 1285 4805 1285 4805 1273
-6
6 4805 1308 5050 1331
2 2 0 0 0 34 19 0 20 0.000 0 1 -1 0 0 5
	 4805 1320 5050 1320 5050 1331 4805 1331 4805 1320
2 2 0 0 0 54 19 0 20 0.000 0 1 -1 0 0 5
	 4805 1308 5050 1308 5050 1320 4805 1320 4805 1308
-6
6 4805 1343 5050 1366
2 2 0 0 0 34 19 0 20 0.000 0 1 -1 0 0 5
	 4805 1355 5050 1355 5050 1366 4805 1366 4805 1355
2 2 0 0 0 54 19 0 20 0.000 0 1 -1 0 0 5
	 4805 1343 5050 1343 5050 1355 4805 1355 4805 1343
-6
-6
6 4805 947 5050 1040
6 4805 1017 5050 1040
2 2 0 0 0 34 19 0 20 0.000 0 1 -1 0 0 5
	 4805 1028 5050 1028 5050 1040 4805 1040 4805 1028
2 2 0 0 0 54 19 0 20 0.000 0 1 -1 0 0 5
	 4805 1017 5050 1017 5050 1028 4805 1028 4805 1017
-6
6 4805 982 5050 1005
2 2 0 0 0 34 19 0 20 0.000 0 1 -1 0 0 5
	 4805 993 5050 993 5050 1005 4805 1005 4805 993
2 2 0 0 0 54 19 0 20 0.000 0 1 -1 0 0 5
	 4805 982 5050 982 5050 993 4805 993 4805 982
-6
6 4805 947 5050 970
2 2 0 0 0 34 19 0 20 0.000 0 1 -1 0 0 5
	 4805 958 5050 958 5050 970 4805 970 4805 958
2 2 0 0 0 54 19 0 20 0.000 0 1 -1 0 0 5
	 4805 947 5050 947 5050 958 4805 958 4805 947
-6
-6
2 2 0 1 0 54 19 0 20 0.000 0 1 -1 0 0 5
	 4770 1401 5085 1401 5085 1448 4770 1448 4770 1401
2 1 0 1 0 33 19 0 20 0.000 0 1 -1 0 0 2
	 4770 1063 5085 1063
2 2 0 1 0 33 20 0 20 0.000 0 1 -1 0 0 5
	 4770 900 5085 900 5085 1448 4770 1448 4770 900
-6
# Desktop computer
6 810 1035 1128 1439
6 836 1042 1106 1289
2 2 0 1 0 34 20 0 20 0.000 2 0 7 0 0 5
	 836 1042 1106 1042 1106 1267 836 1267 836 1042
2 2 0 0 0 54 19 0 22 0.000 1 0 -1 0 0 5
	 1050 1064 1027 1064 1027 1245 1050 1245 1050 1064
2 2 0 0 0 54 19 0 24 0.000 1 0 -1 0 0 5
	 1027 1064 1005 1064 1005 1245 1027 1245 1027 1064
2 2 0 0 0 54 19 0 26 0.000 1 0 -1 0 0 5
	 1005 1064 971 1064 971 1245 1005 1245 1005 1064
2 2 0 0 0 54 19 0 28 0.000 1 0 -1 0 0 5
	 971 1064 937 1064 937 1245 971 1245 971 1064
2 2 0 0 0 54 19 0 30 0.000 1 0 -1 0 0 5
	 937 1064 915 1064 915 1245 937 1245 937 1064
2 2 0 0 0 54 19 0 33 0.000 1 0 -1 0 0 5
	 915 1064 892 1064 892 1245 915 1245 915 1064
2 2 0 0 0 54 19 0 33 0.000 1 0 -1 0 0 5
	 892 1064 870 1064 870 1245 892 1245 892 1064
2 2 0 1 0 32 20 0 20 0.000 2 0 7 0 0 5
	 915 1267 1027 1267 1027 1278 915 1278 915 1267
2 2 0 1 0 32 20 0 20 0.000 2 0 -1 0 0 5
	 903 1278 1039 1278 1039 1289 903 1289 903 1278
2 2 0 0 0 54 19 0 20 0.000 1 0 7 0 0 5
	 1072 1064 1050 1064 1050 1245 1072 1245 1072 1064
3 5 0 0 0 33 18 0 20 0.000 0 0 0 4
	 859 1064 859 1245 870 1233 870 1075
	 0.000 0.000 0.000 0.000
3 5 0 0 0 7 18 0 20 0.000 0 0 0 5
	 859 1245 870 1233 973 1238 1072 1233 1084 1245
	 0.000 0.000 -1.000 0.000 0.000
3 5 0 0 0 33 18 0 20 0.000 0 0 0 4
	 1084 1064 1084 1245 1072 1233 1072 1075
	 0.000 0.000 0.000 0.000
3 5 0 0 0 32 18 0 20 0.000 0 0 0 5
	 859 1064 870 1075 973 1071 1072 1075 1084 1064
	 0.000 0.000 -1.000 0.000 0.000
-6
6 814 1368 1128 1436
2 3 0 1 0 34 20 0 20 0.000 2 0 7 0 0 7
	 847 1368 1095 1368 1128 1425 1128 1436 814 1436 814 1425
	 847 1368
2 1 0 1 0 33 19 0 20 0.000 2 0 -1 0 0 4
	 814 1425 814 1436 1128 1436 1128 1425
2 3 0 0 0 7 19 0 20 0.000 2 0 -1 0 0 5
	 859 1379 836 1413 1039 1413 1027 1379 859 1379
2 2 0 0 0 32 18 0 20 0.000 2 0 -1 0 0 5
	 836 1413 1039 1413 1039 1417 836 1417 836 1413
2 3 0 0 0 33 18 0 20 0.000 2 0 -1 0 0 9
	 854 1379 836 1413 870 1413 874 1402 867 1402 872 1391
	 864 1391 870 1379 854 1379
2 3 0 0 0 33 18 0 20 0.000 2 0 -1 0 0 10
	 1039 1413 1005 1413 1005 1402 1012 1402 1011 1391 1016 1391
	 1017 1391 1015 1379 1029 1379 1039 1413
2 3 0 0 0 7 19 0 20 0.000 2 0 -1 0 0 5
	 1084 1379 1039 1379 1050 1413 1106 1413 1084 1379
2 3 0 0 0 33 18 0 20 0.000 2 0 -1 0 0 7
	 1106 1413 1095 1413 1084 1386 1041 1386 1038 1379 1088 1379
	 1106 1413
2 2 0 0 0 32 18 0 20 0.000 2 0 -1 0 0 5
	 1050 1413 1106 1413 1106 1417 1050 1417 1050 1413
2 3 0 0 0 32 18 0 20 0.000 2 0 -1 0 0 5
	 1050 1413 1049 1417 1038 1383 1038 1380 1050 1413
-6
6 842 1289 1100 1357
6 1008 1301 1086 1323
6 1008 1301 1086 1323
2 1 0 1 32 -1 19 0 -1 0.000 2 0 -1 0 0 5
	 1008 1312 1008 1307 1033 1307 1033 1301 1062 1301
2 1 0 1 32 -1 19 0 -1 0.000 2 0 -1 0 0 3
	 1033 1323 1033 1312 1062 1312
2 1 0 1 32 -1 19 0 -1 0.000 2 0 -1 0 0 2
	 1062 1307 1086 1307
2 1 0 1 7 -1 19 0 -1 0.000 2 0 -1 0 0 2
	 1062 1301 1062 1307
2 1 0 1 7 -1 19 0 -1 0.000 2 0 -1 0 0 2
	 1008 1312 1033 1312
2 1 0 1 7 -1 19 0 -1 0.000 2 0 -1 0 0 5
	 1033 1323 1062 1323 1062 1312 1086 1312 1086 1307
2 1 0 1 32 -1 19 0 -1 0.000 2 0 -1 0 0 3
	 1068 1323 1081 1323 1081 1318
2 1 0 1 7 -1 19 0 -1 0.000 2 0 -1 0 0 3
	 1068 1323 1068 1318 1081 1318
-6
-6
2 2 0 1 0 54 20 0 20 0.000 2 0 -1 0 0 5
	 842 1357 876 1357 876 1351 842 1351 842 1357
2 2 0 1 0 54 20 0 20 0.000 2 0 -1 0 0 5
	 1066 1357 1100 1357 1100 1351 1066 1351 1066 1357
2 2 0 1 0 34 20 0 20 0.000 2 0 -1 0 0 5
	 842 1289 1100 1289 1100 1352 842 1352 842 1289
-6
-6
# Desktop computer
6 1421 1035 1739 1439
6 1447 1042 1717 1289
2 2 0 1 0 34 20 0 20 0.000 2 0 7 0 0 5
	 1447 1042 1717 1042 1717 1267 1447 1267 1447 1042
2 2 0 0 0 54 19 0 22 0.000 1 0 -1 0 0 5
	 1661 1064 1638 1064 1638 1245 1661 1245 1661 1064
2 2 0 0 0 54 19 0 24 0.000 1 0 -1 0 0 5
	 1638 1064 1616 1064 1616 1245 1638 1245 1638 1064
2 2 0 0 0 54 19 0 26 0.000 1 0 -1 0 0 5
	 1616 1064 1582 1064 1582 1245 1616 1245 1616 1064
2 2 0 0 0 54 19 0 28 0.000 1 0 -1 0 0 5
	 1582 1064 1548 1064 1548 1245 1582 1245 1582 1064
2 2 0 0 0 54 19 0 30 0.000 1 0 -1 0 0 5
	 1548 1064 1526 1064 1526 1245 1548 1245 1548 1064
2 2 0 0 0 54 19 0 33 0.000 1 0 -1 0 0 5
	 1526 1064 1503 1064 1503 1245 1526 1245 1526 1064
2 2 0 0 0 54 19 0 33 0.000 1 0 -1 0 0 5
	 1503 1064 1481 1064 1481 1245 1503 1245 1503 1064
2 2 0 1 0 32 20 0 20 0.000 2 0 7 0 0 5
	 1526 1267 1638 1267 1638 1278 1526 1278 1526 1267
2 2 0 1 0 32 20 0 20 0.000 2 0 -1 0 0 5
	 1514 1278 1650 1278 1650 1289 1514 1289 1514 1278
2 2 0 0 0 54 19 0 20 0.000 1 0 7 0 0 5
	 1683 1064 1661 1064 1661 1245 1683 1245 1683 1064
3 5 0 0 0 33 18 0 20 0.000 0 0 0 4
	 1470 1064 1470 1245 1481 1233 1481 1075
	 0.000 0.000 0.000 0.000
3 5 0 0 0 7 18 0 20 0.000 0 0 0 5
	 1470 1245 1481 1233 1584 1238 1683 1233 1695 1245
	 0.000 0.000 -1.000 0.000 0.000
3 5 0 0 0 33 18 0 20 0.000 0 0 0 4
	 1695 1064 1695 1245 1683 1233 1683 1075
	 0.000 0.000 0.000 0.000
3 5 0 0 0 32 18 0 20 0.000 0 0 0 5
	 1470 1064 1481 1075 1584 1071 1683 1075 1695 1064
	 0.000 0.000 -1.000 0.000 0.000
-6
6 1425 1368 1739 1436
2 3 0 1 0 34 20 0 20 0.000 2 0 7 0 0 7
	 1458 1368 1706 1368 1739 1425 1739 1436 1425 1436 1425 1425
	 1458 1368
2 1 0 1 0 33 19 0 20 0.000 2 0 -1 0 0 4
	 1425 1425 1425 1436 1739 1436 1739 1425
2 3 0 0 0 7 19 0 20 0.000 2 0 -1 0 0 5
	 1470 1379 1447 1413 1650 1413 1638 1379 1470 1379
2 2 0 0 0 32 18 0 20 0.000 2 0 -1 0 0 5
	 1447 1413 1650 1413 1650 1417 1447 1417 1447 1413
2 3 0 0 0 33 18 0 20 0.000 2 0 -1 0 0 9
	 1465 1379 1447 1413 1481 1413 1485 1402 1478 1402 1483 1391
	 1475 1391 1481 1379 1465 1379
2 3 0 0 0 33 18 0 20 0.000 2 0 -1 0 0 10
	 1650 1413 1616 1413 1616 1402 1623 1402 1622 1391 1627 1391
	 1628 1391 1626 1379 1640 1379 1650 1413
2 3 0 0 0 7 19 0 20 0.000 2 0 -1 0 0 5
	 1695 1379 1650 1379 1661 1413 1717 1413 1695 1379
2 3 0 0 0 33 18 0 20 0.000 2 0 -1 0 0 7
	 1717 1413 1706 1413 1695 1386 1652 1386 1649 1379 1699 1379
	 1717 1413
2 2 0 0 0 32 18 0 20 0.000 2 0 -1 0 0 5
	 1661 1413 1717 1413 1717 1417 1661 1417 1661 1413
2 3 0 0 0 32 18 0 20 0.000 2 0 -1 0 0 5
	 1661 1413 1660 1417 1649 1383 1649 1380 1661 1413
-6
6 1453 1289 1711 1357
6 1619 1301 1697 1323
6 1619 1301 1697 1323
2 1 0 1 32 -1 19 0 -1 0.000 2 0 -1 0 0 5
	 1619 1312 1619 1307 1644 1307 1644 1301 1673 1301
2 1 0 1 32 -1 19 0 -1 0.000 2 0 -1 0 0 3
	 1644 1323 1644 1312 1673 1312
2 1 0 1 32 -1 19 0 -1 0.000 2 0 -1 0 0 2
	 1673 1307 1697 1307
2 1 0 1 7 -1 19 0 -1 0.000 2 0 -1 0 0 2
	 1673 1301 1673 1307
2 1 0 1 7 -1 19 0 -1 0.000 2 0 -1 0 0 2
	 1619 1312 1644 1312
2 1 0 1 7 -1 19 0 -1 0.000 2 0 -1 0 0 5
	 1644 1323 1673 1323 1673 1312 1697 1312 1697 1307
2 1 0 1 32 -1 19 0 -1 0.000 2 0 -1 0 0 3
	 1679 1323 1692 1323 1692 1318
2 1 0 1 7 -1 19 0 -1 0.000 2 0 -1 0 0 3
	 1679 1323 1679 1318 1692 1318
-6
-6
2 2 0 1 0 54 20 0 20 0.000 2 0 -1 0 0 5
	 1453 1357 1487 1357 1487 1351 1453 1351 1453 1357
2 2 0 1 0 54 20 0 20 0.000 2 0 -1 0 0 5
	 1677 1357 1711 1357 1711 1351 1677 1351 1677 1357
2 2 0 1 0 34 20 0 20 0.000 2 0 -1 0 0 5
	 1453 1289 1711 1289 1711 1352 1453 1352 1453 1289
-6
-6
6 3825 1350 4623 1890
5 1 0 1 0 11 52 -1 30 0.000 0 0 0 0 4061.961 1551.687 3895 1632 4013 1373 4247 1561
5 1 0 1 0 11 53 -1 30 0.000 0 0 0 0 4306.542 1525.457 4154 1514 4294 1373 4459 1538
5 1 0 1 0 11 54 -1 30 0.000 0 0 0 0 4470.500 1573.000 4365 1491 4576 1491 4365 1655
5 1 0 1 0 11 55 -1 30 0.000 0 0 0 0 4318.000 1678.625 4435 1608 4388 1796 4201 1608
5 1 0 1 0 11 56 -1 30 0.000 0 1 0 0 4177.000 1714.000 4060 1585 4060 1843 4294 1585
5 1 0 1 0 11 57 -1 30 0.000 0 0 0 0 3977.500 1675.500 4083 1749 3872 1749 3919 1561
2 2 0 0 0 11 51 -1 30 0.000 0 0 -1 0 0 5
	 3966 1514 4412 1514 4412 1726 3966 1726 3966 1514
-6
2 1 0 1 0 7 50 -1 -1 0.000 0 0 -1 0 0 3
	 2790 1260 3060 1260 3060 1620
2 1 0 1 0 7 50 -1 -1 0.000 0 0 -1 0 0 3
	 2430 1260 2160 1260 2160 1620
2 1 0 1 0 7 50 -1 -1 0.000 0 0 -1 0 0 2
	 2430 1620 540 1620
2 1 0 1 0 7 60 -1 -1 0.000 0 0 -1 0 0 2
	 2790 1620 3870 1620
2 1 0 1 0 7 60 -1 20 0.000 0 0 -1 0 0 2
	 4455 1620 5220 1620
2 1 0 1 0 7 50 -1 -1 0.000 0 0 -1 0 0 2
	 945 1350 945 1620
2 1 0 1 0 7 50 -1 -1 0.000 0 0 -1 0 0 2
	 1575 1350 1575 1620
2 1 0 1 0 7 49 -1 16 0.000 0 0 -1 0 0 2
	 4950 1620 4950 1395
2 2 0 1 0 7 49 -1 -1 0.000 0 0 -1 0 0 5
	 1260 360 3960 360 3960 765 1260 765 1260 360
2 1 2 1 0 7 49 -1 16 3.000 0 0 -1 0 0 2
	 2745 765 2610 1035
2 2 0 1 0 11 51 -1 38 0.000 0 0 -1 0 0 5
	 360 2070 2340 2070 2340 2250 360 2250 360 2070
2 2 0 1 0 11 51 -1 38 0.000 0 0 -1 0 0 5
	 2925 2070 4905 2070 4905 2250 2925 2250 2925 2070
2 2 0 1 0 11 51 -1 38 0.000 0 0 -1 0 0 5
	 2925 2340 4905 2340 4905 2520 2925 2520 2925 2340
2 2 0 1 0 11 51 -1 38 0.000 0 0 -1 0 0 5
	 360 2340 2340 2340 2340 2520 360 2520 360 2340
2 2 0 1 0 0 52 -1 20 0.000 0 0 -1 0 0 5
	 405 2115 2385 2115 2385 2295 405 2295 405 2115
2 2 0 1 0 0 52 -1 20 0.000 0 0 -1 0 0 5
	 405 2385 2385 2385 2385 2565 405 2565 405 2385
2 2 0 1 0 0 52 -1 20 0.000 0 0 -1 0 0 5
	 2970 2115 4950 2115 4950 2295 2970 2295 2970 2115
2 2 0 1 0 0 52 -1 20 0.000 0 0 -1 0 0 5
	 2970 2385 4950 2385 4950 2565 2970 2565 2970 2385
3 0 0 1 13 7 50 -1 -1 0.000 0 1 1 4
	1 1 1.00 60.00 120.00
	1 1 1.00 60.00 120.00
	 2430 2475 2565 2340 2745 2340 2880 2475
	 0.000 1.000 1.000 0.000
3 0 0 1 1 7 50 -1 -1 0.000 0 1 1 4
	1 1 1.00 60.00 120.00
	1 1 1.00 60.00 120.00
	 2430 2205 2565 2070 2745 2070 2880 2205
	 0.000 1.000 1.000 0.000
4 0 0 50 -1 16 8 0.0000 4 90 270 2205 1575 .254\001
4 2 0 50 -1 16 8 0.0000 4 90 120 3015 1575 .1\001
4 2 0 49 -1 16 8 0.0000 4 105 915 4725 1080 www.unistra.fr\001
4 2 13 50 -1 16 8 0.0000 4 90 120 1530 1575 .2\001
4 2 0 50 -1 16 8 0.0000 4 105 930 2430 1755 192.168.1.0/24\001
4 2 0 50 -1 17 8 0.0000 4 105 885 2430 1890 r\351seau interne\001
4 0 0 50 -1 16 8 0.0000 4 105 1005 2790 1755 198.51.100.0/24\001
4 0 0 50 -1 17 8 0.0000 4 105 930 2790 1890 r\351seau externe\001
4 1 1 49 -1 16 7 0.0000 4 120 2475 2610 495 (192.168.1.1, 1234, 130.79.201.19,5, 80) <-> 2000\001
4 1 13 49 -1 16 7 0.0000 4 120 2475 2610 675 (192.168.1.2, 5678, 130.79.201.19,5, 80) <-> 2001\001
4 2 0 49 -1 16 7 0.0000 4 90 600 1215 540 table d'\351tats\001
4 1 13 50 -1 16 6 0.0000 4 105 2070 1350 2475 (192.168.1.2, 5678) -> (130.79.201.195, 80)\001
4 1 1 50 -1 16 6 0.0000 4 105 2070 1350 2205 (192.168.1.1, 1234) -> (130.79.201.195, 80)\001
4 2 1 50 -1 16 8 0.0000 4 90 120 900 1575 .1\001
4 1 13 50 -1 16 6 0.0000 4 105 2130 3915 2475 (198.51.100.1, 2001) -> (130.79.201.195, 80)\001
4 1 1 50 -1 16 6 0.0000 4 105 2130 3915 2205 (198.51.100.1, 2000) -> (130.79.201.195, 80)\001
