#FIG 3.2  Produced by xfig version 3.2.5b
Landscape
Center
Metric
A4      
100.00
Single
-2
1200 2
6 765 450 1215 675
4 1 0 50 -1 16 5 0.0000 4 60 180 990 540 SYN\001
4 1 0 50 -1 16 5 0.0000 4 60 420 990 675 SYN+ACK\001
-6
6 810 810 1260 1035
4 1 0 50 -1 16 5 0.0000 4 60 180 1035 900 SYN\001
4 1 0 50 -1 16 5 0.0000 4 60 420 1035 1035 SYN+ACK\001
-6
6 900 1170 1350 1395
4 1 0 50 -1 16 5 0.0000 4 60 180 1125 1260 SYN\001
4 1 0 50 -1 16 5 0.0000 4 60 420 1125 1395 SYN+ACK\001
-6
6 990 1530 1440 1755
4 1 0 50 -1 16 5 0.0000 4 60 180 1215 1620 SYN\001
4 1 0 50 -1 16 5 0.0000 4 60 420 1215 1755 SYN+ACK\001
-6
2 1 0 1 0 7 50 -1 -1 0.000 0 0 -1 1 0 2
	1 1 1.00 60.00 120.00
	 450 450 450 2340
2 1 0 1 0 7 50 -1 -1 0.000 0 0 -1 1 0 2
	1 1 1.00 60.00 120.00
	 1350 540 540 630
2 1 0 1 0 7 50 -1 -1 0.000 0 0 -1 1 0 2
	1 1 1.00 60.00 120.00
	 540 675 1350 765
2 1 0 1 0 7 50 -1 -1 0.000 0 0 -1 1 0 2
	1 1 1.00 60.00 120.00
	 1530 900 540 990
2 1 0 1 0 7 50 -1 -1 0.000 0 0 -1 1 0 2
	1 1 1.00 60.00 120.00
	 540 1035 1530 1125
2 1 0 1 0 7 50 -1 -1 0.000 0 0 -1 1 0 2
	1 1 1.00 60.00 120.00
	 1710 1260 540 1350
2 1 0 1 0 7 50 -1 -1 0.000 0 0 -1 1 0 2
	1 1 1.00 60.00 120.00
	 540 1395 1710 1485
2 1 0 1 0 7 50 -1 -1 0.000 0 0 -1 1 0 2
	1 1 1.00 60.00 120.00
	 1890 1620 540 1710
2 1 0 1 0 7 50 -1 -1 0.000 0 0 -1 1 0 2
	1 1 1.00 60.00 120.00
	 540 1755 1890 1845
2 1 0 1 0 7 50 -1 -1 0.000 0 0 -1 0 0 2
	 405 630 495 630
2 1 0 1 0 7 50 -1 -1 0.000 0 0 -1 0 0 2
	 405 990 495 990
2 1 0 1 0 7 50 -1 -1 0.000 0 0 -1 0 0 2
	 405 1350 495 1350
2 1 0 1 0 7 50 -1 -1 0.000 0 0 -1 0 0 2
	 405 1710 495 1710
2 1 0 1 0 7 50 -1 -1 0.000 0 0 -1 0 0 2
	 405 2070 495 2070
2 1 0 1 0 7 50 -1 -1 0.000 0 0 -1 1 0 2
	1 1 1.00 60.00 120.00
	 2070 1980 540 2070
4 1 0 50 -1 16 5 0.0000 4 60 180 1305 1980 SYN\001
4 1 0 50 -1 16 7 0.0000 4 90 75 1440 540 A\001
4 1 0 50 -1 16 7 0.0000 4 90 75 1620 900 B\001
4 1 0 50 -1 16 7 0.0000 4 90 90 1800 1260 C\001
4 1 0 50 -1 16 7 0.0000 4 90 90 1980 1620 D\001
4 1 0 50 -1 16 7 0.0000 4 90 75 2160 1980 E\001
4 0 0 50 -1 17 5 0.0000 4 60 465 540 2205 Badaboum !\001
4 1 0 50 -1 16 7 0.0000 4 90 75 540 540 V\001
