#FIG 3.2
Portrait
Center
Metric
A4      
100.00
Single
-3
1200 2
6 360 315 3195 450
4 1 0 50 -1 16 10 0.0000 6 120 105 450 450 P\001
4 1 0 50 -1 16 10 0.0000 6 120 105 1800 450 V\001
4 1 0 50 -1 16 10 0.0000 6 120 45 3150 450 I\001
-6
2 1 0 1 0 7 50 -1 -1 0.000 0 0 -1 1 0 2
	1 1 1.00 60.00 120.00
	 1800 720 1800 2925
2 1 0 1 0 7 50 -1 -1 0.000 0 0 -1 1 0 2
	1 1 1.00 60.00 120.00
	 3150 720 3150 2925
2 1 0 1 0 7 50 -1 -1 0.000 0 0 -1 1 0 2
	1 1 1.00 60.00 120.00
	 450 720 450 2925
2 1 0 1 0 7 50 -1 -1 0.000 0 0 -1 1 0 2
	1 1 1.00 60.00 120.00
	 1845 1575 3105 1755
2 1 0 1 0 7 50 -1 -1 0.000 0 0 -1 1 0 2
	1 1 1.00 60.00 120.00
	 495 2038 1755 2218
2 1 1 1 0 7 50 -1 -1 4.000 0 0 -1 0 0 2
	 450 495 450 720
2 1 1 1 0 7 50 -1 -1 4.000 0 0 -1 0 0 2
	 1800 495 1800 720
2 1 1 1 0 7 50 -1 -1 4.000 0 0 -1 0 0 2
	 3150 495 3150 720
2 1 0 1 0 7 50 -1 -1 4.000 0 0 -1 1 0 2
	1 1 1.00 60.00 120.00
	 491 2429 1751 2609
2 1 0 1 0 7 50 -1 -1 4.000 0 0 -1 1 0 2
	1 1 1.00 60.00 120.00
	 3105 720 1845 900
2 1 0 1 0 7 50 -1 -1 4.000 0 0 -1 1 0 2
	1 1 1.00 60.00 120.00
	 1845 945 3105 1125
2 1 0 1 0 7 50 -1 -1 4.000 0 0 -1 1 0 2
	1 1 1.00 60.00 120.00
	 3105 1350 1845 1530
2 1 0 1 0 7 50 -1 -1 4.000 0 0 -1 1 0 2
	1 1 1.00 60.00 120.00
	 1845 2250 2475 2340
2 1 0 1 0 7 50 -1 -1 4.000 0 0 -1 1 0 2
	1 1 1.00 60.00 120.00
	 1845 2655 2475 2745
4 0 0 50 -1 16 8 0.0000 6 135 1275 495 1980 I->V, S=x+30, Data=15\001
4 0 0 50 -1 16 8 0.0000 6 135 1275 495 2385 I->V, S=x+45, Data=10\001
4 2 0 50 -1 16 8 0.0000 6 135 1275 3105 1305 I->V, S=x+10, Data=20\001
4 0 0 50 -1 16 8 0.0000 6 120 750 2205 990 V->I, A=x+10\001
4 2 0 50 -1 16 8 0.0000 6 135 1050 3105 675 I->V, S=x, Data=10\001
4 0 0 50 -1 16 8 0.0000 6 120 750 2205 1620 V->I, A=x+30\001
4 0 0 50 -1 16 8 0.0000 6 120 750 2205 2250 V->I, A=x+45\001
4 0 0 50 -1 16 8 0.0000 6 120 750 2205 2655 V->I, A=x+55\001
