#FIG 3.2  Produced by xfig version 3.2.5c
Portrait
Center
Metric
A4      
100.00
Single
-2
1200 2
2 1 0 1 -1 -1 60 0 -1 0.000 0 0 -1 1 0 2
	1 1 1.00 45.00 90.00
	 2205 1395 495 1845
2 1 0 1 -1 -1 60 0 -1 0.000 0 0 -1 1 0 2
	1 1 1.00 45.00 90.00
	 2205 945 495 1395
2 1 0 1 -1 -1 60 0 -1 0.000 0 0 -1 1 0 2
	1 1 1.00 45.00 90.00
	 495 1440 2205 1890
2 1 0 1 -1 -1 60 0 -1 0.000 0 0 -1 1 0 2
	1 1 1.00 45.00 90.00
	 2205 1170 495 1620
2 1 0 1 -1 -1 60 0 -1 0.000 0 0 -1 1 0 2
	1 1 1.00 45.00 90.00
	 495 1665 2205 2115
2 1 0 1 -1 -1 60 0 -1 0.000 0 0 -1 1 0 2
	1 1 1.00 45.00 90.00
	 495 1875 2205 2340
2 1 0 1 -1 -1 60 0 -1 0.000 0 0 -1 1 0 2
	1 1 1.00 45.00 90.00
	 495 900 2205 1350
2 1 0 1 -1 -1 60 0 -1 0.000 0 0 -1 1 0 2
	1 1 1.00 45.00 90.00
	 495 675 2205 1125
2 1 0 1 -1 -1 60 0 -1 0.000 0 0 -1 1 0 2
	1 1 1.00 45.00 90.00
	 495 450 2205 900
2 1 0 1 -1 -1 60 0 -1 0.000 0 0 -1 1 0 2
	1 1 1.00 45.00 90.00
	 450 315 450 2565
2 1 0 1 -1 -1 60 0 -1 0.000 0 0 -1 1 0 2
	1 1 1.00 45.00 90.00
	 2250 315 2250 2565
4 0 8 50 -1 16 8 0.0000 4 120 600 540 450 seq=1000\001
4 0 8 50 -1 16 8 0.0000 4 120 600 540 675 seq=2000\001
4 0 8 50 -1 16 8 0.0000 4 120 600 540 900 seq=3000\001
4 0 8 50 -1 16 8 0.0000 4 120 600 540 1440 seq=4000\001
4 0 8 50 -1 16 8 0.0000 4 120 600 540 1665 seq=5000\001
4 0 8 50 -1 16 8 0.0000 4 120 600 540 1890 seq=6000\001
4 2 12 50 -1 16 8 0.0000 4 105 600 2025 990 ack=2000\001
4 2 12 50 -1 16 8 0.0000 4 105 600 2025 1215 ack=3000\001
4 2 12 50 -1 16 8 0.0000 4 105 600 2025 1440 ack=4000\001
4 1 -1 60 0 16 10 0.0000 4 120 45 540 2475 t\001
4 1 -1 60 0 16 10 0.0000 4 120 45 2160 2475 t\001
4 0 -1 0 0 17 10 0.0000 4 120 645 360 270 \351metteur\001
4 2 -1 0 0 17 10 0.0000 4 150 705 2340 270 r\351cepteur\001
