#FIG 3.2  Produced by xfig version 3.2.5c
Portrait
Center
Metric
A4      
100.00
Single
-2
1200 2
2 1 0 1 -1 -1 0 0 -1 0.000 0 0 -1 1 0 2
	1 1 1.00 45.00 90.00
	 2250 225 2250 2475
2 1 0 1 -1 -1 0 0 -1 0.000 0 0 -1 1 0 2
	1 1 1.00 45.00 90.00
	 450 225 450 2475
2 1 0 1 -1 -1 0 0 -1 0.000 0 0 -1 1 0 2
	1 1 1.00 45.00 90.00
	 495 450 2205 900
2 1 0 1 -1 -1 0 0 -1 0.000 0 0 -1 1 0 2
	1 1 1.00 45.00 90.00
	 2205 1125 495 1575
2 1 0 1 -1 -1 0 0 -1 0.000 0 0 -1 1 0 2
	1 1 1.00 45.00 90.00
	 510 1785 2220 2250
4 1 -1 0 0 17 10 0.0000 4 120 375 450 180 client\001
4 1 -1 0 0 16 10 0.0000 4 120 45 2250 2610 t\001
4 1 -1 0 0 16 10 0.0000 4 120 45 450 2610 t\001
4 1 -1 0 0 17 10 0.0000 4 90 570 2250 180 serveur\001
4 0 12 0 0 20 8 0.0000 4 135 735 1485 1080 ACK (ack=x+1)\001
4 0 12 0 0 20 8 0.0000 4 135 735 495 1755 ACK (ack=y+1)\001
4 2 1 0 0 20 8 0.0000 4 135 615 1440 1080 SYN (seq=y)\001
4 0 1 0 0 20 8 0.0000 4 135 615 495 405 SYN (seq=x)\001
