#FIG 3.2  Produced by xfig version 3.2.6a
Landscape
Center
Metric
A4
100.00
Single
-2
1200 2
0 32 #c6b797
0 33 #eff8ff
0 34 #dccba6
0 35 #404040
0 36 #808080
0 37 #c0c0c0
0 38 #e0e0e0
0 39 #8e8f8e
0 40 #aaaaaa
0 41 #555555
0 42 #bebebe
0 43 #515151
0 44 #e7e3e7
0 45 #000049
0 46 #797979
0 47 #303430
0 48 #414141
0 49 #c7b696
0 50 #8e8e8e
0 51 #414541
0 52 #8e8e8e
0 53 #cccccc
0 54 #868286
0 55 #c7c3c7
0 56 #444444
0 57 #868686
0 58 #c7c7c7
0 59 #e7e7e7
0 60 #f7f7f7
0 61 #9e9e9e
0 62 #717571
0 63 #effbff
0 64 #666666
0 65 #909090
0 66 #e6e4ce
0 67 #9b9b9b
0 68 #ce9100
0 69 #f762aa
0 70 #7070ff
0 71 #5f5f5f
0 72 #e2e2ee
0 73 #94949a
0 74 #dbdbdb
0 75 #a1a1b7
0 76 #9c0000
0 77 #000000
0 78 #ffffff
0 79 #dd9d93
0 80 #f1ece0
0 81 #c3c3c3
0 82 #e2c8a8
0 83 #e1e1e1
0 84 #d2d2d2
0 85 #ededed
0 86 #da7a1a
0 87 #f1e41a
0 88 #887dc2
0 89 #d6d6d6
0 90 #8c8ca5
0 91 #4a4a4a
0 92 #5a5a5a
0 93 #636363
0 94 #b79b73
0 95 #4193ff
0 96 #bf703b
0 97 #db7700
0 98 #dab800
0 99 #006400
0 100 #5a6b3b
0 101 #d3d3d3
0 102 #8e8ea4
0 103 #f3b95d
0 104 #89996b
0 105 #646464
0 106 #b7e6ff
0 107 #86c0ec
0 108 #bdbdbd
0 109 #d39552
0 110 #98d2fe
0 111 #8c6b6b
0 112 #8c9c6b
0 113 #f76b00
0 114 #5a6b39
0 115 #8c9c6b
0 116 #8c9c7b
0 117 #184a18
0 118 #adadad
0 119 #f7bd5a
0 120 #636b9c
0 121 #de0000
0 122 #adadad
0 123 #f3eed3
0 124 #f5ae5d
0 125 #95ce99
0 126 #b5157d
0 127 #eeeeee
0 128 #848484
0 129 #7b7b7b
0 130 #005a00
0 131 #e77373
0 132 #ffcb31
0 133 #29794a
0 134 #de2821
0 135 #2159c6
0 136 #f8f8f8
0 137 #e6e6e6
0 138 #a5b5c6
0 139 #6b6b94
0 140 #846b6b
0 141 #529c4a
0 142 #d6e7e7
0 143 #526363
0 144 #186b4a
0 145 #21845a
0 146 #dedede
0 147 #526b29
0 148 #949494
0 149 #006300
0 150 #9ca5b5
0 151 #ff9400
0 152 #ff9400
0 153 #00634a
0 154 #7b844a
0 155 #63737b
0 156 #e7bd7b
0 157 #565151
0 158 #d7d7d7
0 159 #85807d
0 160 #3a3a3a
0 161 #4573aa
0 162 #aeaeae
0 163 #7b79a5
0 164 #73758c
0 165 #635dce
0 166 #d9d9d9
0 167 #569eb0
0 168 #86acff
0 169 #fff2d3
0 170 #ffe4ae
0 171 #ffd279
0 172 #cfcfcf
0 173 #999999
0 174 #b2b2b2
# Generic electronic chip
# drawn by P. David
6 1215 765 2385 1935
2 2 0 1 0 7 51 -1 18 0.000 0 0 -1 0 0 5
	 1350 900 2250 900 2250 1800 1350 1800 1350 900
2 1 0 3 0 7 52 -1 -1 0.000 0 0 -1 0 0 2
	 1440 810 1440 1890
2 1 0 3 0 7 52 -1 -1 0.000 0 0 -1 0 0 2
	 1530 810 1530 1890
2 1 0 3 0 7 52 -1 -1 0.000 0 0 -1 0 0 2
	 1620 810 1620 1890
2 1 0 3 0 7 52 -1 -1 0.000 0 0 -1 0 0 2
	 1710 810 1710 1890
2 1 0 3 0 7 52 -1 -1 0.000 0 0 -1 0 0 2
	 1800 810 1800 1890
2 1 0 3 0 7 52 -1 -1 0.000 0 0 -1 0 0 2
	 1890 810 1890 1890
2 1 0 3 0 7 52 -1 -1 0.000 0 0 -1 0 0 2
	 2160 810 2160 1890
2 1 0 3 0 7 52 -1 -1 0.000 0 0 -1 0 0 2
	 1980 810 1980 1890
2 1 0 3 0 7 52 -1 -1 0.000 0 0 -1 0 0 2
	 2070 810 2070 1890
2 1 0 3 0 7 52 -1 -1 0.000 0 0 -1 0 0 2
	 1260 990 2340 990
2 1 0 3 0 7 52 -1 -1 0.000 0 0 -1 0 0 2
	 1260 1080 2340 1080
2 1 0 3 0 7 52 -1 -1 0.000 0 0 -1 0 0 2
	 1260 1170 2340 1170
2 1 0 3 0 7 52 -1 -1 0.000 0 0 -1 0 0 2
	 1260 1260 2340 1260
2 1 0 3 0 7 52 -1 -1 0.000 0 0 -1 0 0 2
	 1260 1350 2340 1350
2 1 0 3 0 7 52 -1 -1 0.000 0 0 -1 0 0 2
	 1260 1440 2340 1440
2 1 0 3 0 7 52 -1 -1 0.000 0 0 -1 0 0 2
	 1260 1530 2340 1530
2 1 0 3 0 7 52 -1 -1 0.000 0 0 -1 0 0 2
	 1260 1620 2340 1620
2 1 0 3 0 7 52 -1 -1 0.000 0 0 -1 0 0 2
	 1260 1710 2340 1710
-6
# Generic electronic chip
# drawn by P. David
6 3465 765 4635 1935
2 2 0 1 0 7 51 -1 18 0.000 0 0 -1 0 0 5
	 3600 900 4500 900 4500 1800 3600 1800 3600 900
2 1 0 3 0 7 52 -1 -1 0.000 0 0 -1 0 0 2
	 3690 810 3690 1890
2 1 0 3 0 7 52 -1 -1 0.000 0 0 -1 0 0 2
	 3780 810 3780 1890
2 1 0 3 0 7 52 -1 -1 0.000 0 0 -1 0 0 2
	 3870 810 3870 1890
2 1 0 3 0 7 52 -1 -1 0.000 0 0 -1 0 0 2
	 3960 810 3960 1890
2 1 0 3 0 7 52 -1 -1 0.000 0 0 -1 0 0 2
	 4050 810 4050 1890
2 1 0 3 0 7 52 -1 -1 0.000 0 0 -1 0 0 2
	 4140 810 4140 1890
2 1 0 3 0 7 52 -1 -1 0.000 0 0 -1 0 0 2
	 4410 810 4410 1890
2 1 0 3 0 7 52 -1 -1 0.000 0 0 -1 0 0 2
	 4230 810 4230 1890
2 1 0 3 0 7 52 -1 -1 0.000 0 0 -1 0 0 2
	 4320 810 4320 1890
2 1 0 3 0 7 52 -1 -1 0.000 0 0 -1 0 0 2
	 3510 990 4590 990
2 1 0 3 0 7 52 -1 -1 0.000 0 0 -1 0 0 2
	 3510 1080 4590 1080
2 1 0 3 0 7 52 -1 -1 0.000 0 0 -1 0 0 2
	 3510 1170 4590 1170
2 1 0 3 0 7 52 -1 -1 0.000 0 0 -1 0 0 2
	 3510 1260 4590 1260
2 1 0 3 0 7 52 -1 -1 0.000 0 0 -1 0 0 2
	 3510 1350 4590 1350
2 1 0 3 0 7 52 -1 -1 0.000 0 0 -1 0 0 2
	 3510 1440 4590 1440
2 1 0 3 0 7 52 -1 -1 0.000 0 0 -1 0 0 2
	 3510 1530 4590 1530
2 1 0 3 0 7 52 -1 -1 0.000 0 0 -1 0 0 2
	 3510 1620 4590 1620
2 1 0 3 0 7 52 -1 -1 0.000 0 0 -1 0 0 2
	 3510 1710 4590 1710
-6
2 1 0 1 0 7 50 -1 -1 0.000 0 0 -1 1 0 2
	1 1 1.00 45.00 90.00
	 2430 1170 3420 1170
2 1 0 1 0 7 50 -1 -1 0.000 0 0 -1 1 0 2
	1 1 1.00 45.00 90.00
	 2430 1530 3420 1530
2 2 0 1 0 0 58 -1 20 0.000 0 0 -1 0 0 5
	 1395 945 2295 945 2295 1845 1395 1845 1395 945
2 2 0 1 0 0 58 -1 20 0.000 0 0 -1 0 0 5
	 3645 945 4545 945 4545 1845 3645 1845 3645 945
2 1 0 1 0 7 50 -1 -1 0.000 0 0 -1 0 0 2
	 6075 900 6075 2520
2 1 0 1 0 7 50 -1 -1 0.000 0 0 -1 0 0 2
	 5715 900 5715 2520
2 1 0 1 0 7 50 -1 -1 0.000 0 0 -1 0 0 2
	 5400 1710 6750 1710
2 1 0 1 0 7 50 -1 -1 0.000 0 0 -1 0 0 2
	 5400 1890 6750 1890
2 2 0 1 0 0 52 -1 20 0.000 0 0 -1 0 0 5
	 5445 945 6795 945 6795 2565 5445 2565 5445 945
2 2 0 1 0 19 51 -1 37 0.000 0 0 -1 0 0 5
	 5400 900 6750 900 6750 2520 5400 2520 5400 900
2 2 0 1 0 11 50 -1 37 0.000 0 0 -1 0 0 5
	 3735 1530 4365 1530 4365 1710 3735 1710 3735 1530
2 2 0 1 0 11 50 -1 37 0.000 0 0 -1 0 0 5
	 3735 1260 4365 1260 4365 1440 3735 1440 3735 1260
3 0 0 1 0 7 49 -1 -1 0.000 0 1 0 4
	1 1 1.00 45.00 90.00
	 4275 1620 4905 1620 4905 900 5355 900
	 0.000 1.000 1.000 0.000
4 2 0 50 -1 16 8 0.0000 4 105 405 1215 1035 clavier\001
4 2 0 50 -1 16 8 0.0000 4 135 405 1215 1215 disque\001
4 2 0 50 -1 16 8 0.0000 4 105 375 1215 1395 souris\001
4 1 0 50 -1 16 10 0.0000 4 120 375 1800 1395 APIC\001
4 0 0 50 -1 17 8 0.0000 4 135 855 2475 1080 1) interruption\001
4 0 0 50 -1 17 8 0.0000 4 135 630 2475 1485 2) vecteur\001
4 1 0 50 -1 16 10 0.0000 4 120 345 4050 1170 CPU\001
4 1 0 50 -1 20 8 0.0000 4 135 780 6075 630 table des portes\001
4 1 0 50 -1 20 8 0.0000 4 135 615 6075 795 d'interruption\001
4 2 0 50 -1 16 8 0.0000 4 90 465 5355 1845 vecteur\001
4 1 0 50 -1 21 6 0.0000 4 105 180 5535 2700 flags\001
4 1 0 50 -1 21 6 0.0000 4 105 330 5895 2700 segment\001
4 1 0 50 -1 21 6 0.0000 4 75 300 6390 2700 adresse\001
4 1 0 49 -1 16 8 0.0000 4 105 345 4050 1665 IDTR\001
4 1 0 49 -1 16 8 0.0000 4 105 540 4050 1395 EFLAGS\001
