#FIG 3.2  Produced by xfig version 3.2.5c
Portrait
Center
Metric
A4      
100.00
Single
-2
1200 2
2 1 0 1 0 7 50 0 -1 0.000 0 0 7 0 0 2
	 2025 225 2025 450
2 1 0 1 0 7 50 0 -1 0.000 0 0 7 0 0 2
	 2925 225 2925 450
2 1 0 1 0 7 50 0 -1 0.000 0 0 7 0 0 2
	 225 675 3825 675
2 1 0 1 0 7 50 0 -1 0.000 0 0 7 0 0 2
	 225 450 3825 450
2 1 0 1 0 7 50 0 -1 0.000 0 0 7 0 0 2
	 1125 225 1125 450
2 1 0 1 0 7 50 0 -1 0.000 0 0 7 0 0 2
	 225 900 3825 900
2 1 0 1 0 7 50 0 -1 0.000 0 0 7 0 0 2
	 225 1125 3825 1125
2 1 0 1 0 7 50 0 -1 0.000 0 0 7 0 0 2
	 225 1350 3825 1350
2 1 0 1 0 7 50 0 -1 0.000 0 0 7 0 0 2
	 225 1575 3825 1575
2 1 0 1 0 7 50 0 -1 0.000 0 0 7 0 0 2
	 225 1800 3825 1800
2 1 0 1 0 7 50 0 -1 0.000 0 0 7 0 0 2
	 225 2250 3825 2250
2 1 0 1 0 7 50 0 -1 0.000 0 0 7 0 0 2
	 225 2700 3825 2700
2 2 0 1 0 6 52 0 38 0.000 0 0 7 0 0 5
	 225 225 3825 225 3825 3600 225 3600 225 225
2 2 0 1 0 6 51 0 30 0.000 0 0 -1 0 0 5
	 2025 675 3825 675 3825 900 2025 900 2025 675
2 2 0 1 0 6 51 0 30 0.000 0 0 -1 0 0 5
	 225 3150 3825 3150 3825 3600 225 3600 225 3150
2 2 0 1 0 0 53 0 20 0.000 0 0 7 0 0 5
	 270 270 3870 270 3870 3645 270 3645 270 270
4 0 0 50 0 16 10 0.0000 4 135 180 2925 180 24\001
4 1 0 50 0 16 10 0.0000 4 165 360 3375 405 Hops\001
4 2 0 50 0 16 10 0.0000 4 135 180 3825 180 31\001
4 0 0 50 0 16 10 0.0000 4 135 180 2025 180 16\001
4 0 0 50 0 16 10 0.0000 4 135 90 1125 180 8\001
4 0 0 50 0 16 10 0.0000 4 135 90 225 180 0\001
4 1 0 50 0 16 10 0.0000 4 165 180 675 405 Op\001
4 1 0 50 0 16 10 0.0000 4 165 450 1575 405 HType\001
4 1 0 50 0 16 10 0.0000 4 135 1260 2025 630 Transaction Id\001
4 1 0 50 0 16 10 0.0000 4 165 450 2925 855 Flags\001
4 1 0 50 0 16 10 0.0000 4 135 630 1125 855 Seconds\001
4 1 0 50 0 16 10 0.0000 4 135 1530 2025 1080 Client IP address\001
4 1 0 50 0 16 10 0.0000 4 135 1350 2025 1305 Your IP address\001
4 1 0 50 0 16 10 0.0000 4 135 1530 2025 1530 Server IP address\001
4 1 0 50 0 16 10 0.0000 4 135 1530 2025 1755 Router IP address\001
4 1 0 50 0 16 10 0.0000 4 165 3150 2025 2070 Client hardware address (16 octets)\001
4 1 0 50 0 16 10 0.0000 4 165 2520 2025 2520 Server host name (64 octets)\001
4 1 0 50 0 16 10 0.0000 4 165 2430 2025 2970 Boot file name (128 octets)\001
4 1 0 50 0 16 10 0.0000 4 180 1620 2025 3420 Options (variable)\001
4 1 0 50 0 16 10 0.0000 4 135 360 2475 405 HLen\001
