#FIG 3.2  Produced by xfig version 3.2.5c
Portrait
Center
Metric
A4      
100.00
Single
-2
1200 2
0 32 #c6b797
0 33 #eff8ff
0 34 #dccba6
0 35 #404040
0 36 #808080
0 37 #c0c0c0
0 38 #e0e0e0
0 39 #8e8f8e
0 40 #aaaaaa
0 41 #555555
0 42 #bebebe
0 43 #515151
0 44 #e7e3e7
0 45 #000049
0 46 #797979
0 47 #303430
0 48 #414141
0 49 #c7b696
0 50 #8e8e8e
0 51 #414541
0 52 #8e8e8e
0 53 #cccccc
0 54 #868286
0 55 #c7c3c7
0 56 #444444
0 57 #868686
0 58 #c7c7c7
0 59 #e7e7e7
0 60 #f7f7f7
0 61 #9e9e9e
0 62 #717571
0 63 #effbff
0 64 #666666
0 65 #000000
0 66 #ffffff
0 67 #dd9d93
0 68 #f1ece0
0 69 #c3c3c3
0 70 #e2c8a8
0 71 #e1e1e1
0 72 #d2d2d2
0 73 #ededed
0 74 #da7a1a
0 75 #f1e41a
0 76 #887dc2
0 77 #d6d6d6
0 78 #8c8ca5
0 79 #4a4a4a
0 80 #5a5a5a
0 81 #636363
0 82 #b79b73
0 83 #4193ff
0 84 #bf703b
0 85 #db7700
0 86 #dab800
0 87 #006400
0 88 #5a6b3b
0 89 #d3d3d3
0 90 #8e8ea4
0 91 #f3b95d
0 92 #89996b
0 93 #646464
0 94 #b7e6ff
0 95 #86c0ec
0 96 #bdbdbd
0 97 #d39552
0 98 #98d2fe
0 99 #8c6b6b
0 100 #eeeeee
0 101 #848484
0 102 #7b7b7b
0 103 #005a00
0 104 #e77373
0 105 #ffcb31
0 106 #29794a
0 107 #de2821
0 108 #2159c6
0 109 #f8f8f8
0 110 #e6e6e6
0 111 #a5b5c6
0 112 #6b6b94
0 113 #846b6b
0 114 #529c4a
0 115 #d6e7e7
0 116 #526363
0 117 #186b4a
0 118 #21845a
0 119 #f3eed3
0 120 #f5ae5d
0 121 #95ce99
0 122 #b5157d
0 123 #5a6b39
0 124 #8c9c6b
0 125 #8c9c7b
0 126 #184a18
0 127 #adadad
0 128 #f7bd5a
0 129 #636b9c
0 130 #de0000
0 131 #adadad
0 132 #f7bd5a
0 133 #adadad
0 134 #f7bd5a
0 135 #636b9c
0 136 #526b29
0 137 #949494
0 138 #006300
0 139 #9ca5b5
0 140 #ff9400
0 141 #ff9400
0 142 #00634a
0 143 #7b844a
0 144 #63737b
0 145 #e7bd7b
0 146 #184a18
0 147 #f7bd5a
0 148 #dedede
0 149 #f76b00
0 150 #565151
0 151 #d7d7d7
0 152 #85807d
0 153 #3a3a3a
0 154 #4573aa
0 155 #aeaeae
0 156 #7b79a5
0 157 #73758c
0 158 #635dce
6 900 1530 1395 2250
6 900 1530 1350 2205
1 1 0 1 0 31 60 0 37 0.000 1 0.0000 1125 1665 225 91 1125 1665 1350 1665
1 1 0 1 0 31 62 0 37 0.000 1 0.0000 1125 2114 225 91 1125 2114 1350 2114
2 2 0 0 7 31 61 0 37 0.000 0 0 -1 0 0 5
	 900 1665 1350 1665 1350 2114 900 2114 900 1665
2 1 0 1 0 31 60 0 37 0.000 0 0 -1 0 0 2
	 900 1665 900 2114
2 1 0 1 0 31 60 0 37 0.000 0 0 -1 0 0 2
	 1350 1665 1350 2114
-6
6 945 1665 1305 2070
2 1 0 1 0 -1 50 0 -1 0.000 0 0 -1 0 0 5
	 1125 1665 1035 1800 1080 1890 1035 1980 1125 2070
2 1 0 1 0 -1 50 0 -1 0.000 0 0 -1 0 0 2
	 1035 1800 945 1890
2 1 0 1 0 -1 50 0 -1 0.000 0 0 -1 0 0 2
	 1035 1980 945 2070
2 1 0 1 0 -1 50 0 -1 0.000 0 0 -1 0 0 2
	 1125 1665 1215 1845
2 1 0 1 0 -1 50 0 -1 0.000 0 0 -1 0 0 3
	 1215 1845 1170 1935 1215 2025
2 1 0 1 0 -1 50 0 -1 0.000 0 0 -1 0 0 2
	 1215 1845 1305 1935
2 1 0 1 0 -1 50 0 -1 0.000 0 0 -1 0 0 2
	 1170 1935 1170 2070
2 1 0 1 0 -1 50 0 -1 0.000 0 0 -1 0 0 2
	 1125 1665 1260 1710
2 1 0 1 0 -1 50 0 -1 0.000 0 0 -1 0 0 2
	 1125 1665 1125 1800
-6
6 945 1619 1395 2250
1 1 0 1 0 0 65 0 20 0.000 1 0.0000 1170 1710 225 91 1170 1710 1395 1710
1 1 0 1 0 0 67 0 20 0.000 1 0.0000 1170 2159 225 91 1170 2159 1395 2159
2 2 0 0 7 0 66 0 20 0.000 0 0 -1 0 0 5
	 945 1710 1395 1710 1395 2159 945 2159 945 1710
2 1 0 1 0 0 65 0 20 0.000 0 0 -1 0 0 2
	 945 1710 945 2159
2 1 0 1 0 0 65 0 20 0.000 0 0 -1 0 0 2
	 1395 1710 1395 2159
-6
-6
# Server box
6 552 225 990 990
6 601 502 941 876
6 601 502 941 534
2 2 0 0 0 38 19 0 20 0.000 0 1 -1 0 0 5
	 601 518 941 518 941 534 601 534 601 518
2 2 0 0 0 35 19 0 20 0.000 0 1 -1 0 0 5
	 601 502 941 502 941 518 601 518 601 502
-6
6 601 550 941 583
2 2 0 0 0 38 19 0 20 0.000 0 1 -1 0 0 5
	 601 567 941 567 941 583 601 583 601 567
2 2 0 0 0 35 19 0 20 0.000 0 1 -1 0 0 5
	 601 550 941 550 941 567 601 567 601 550
-6
6 601 599 941 632
2 2 0 0 0 38 19 0 20 0.000 0 1 -1 0 0 5
	 601 616 941 616 941 632 601 632 601 616
2 2 0 0 0 35 19 0 20 0.000 0 1 -1 0 0 5
	 601 599 941 599 941 616 601 616 601 599
-6
6 601 648 941 681
2 2 0 0 0 38 19 0 20 0.000 0 1 -1 0 0 5
	 601 665 941 665 941 681 601 681 601 665
2 2 0 0 0 35 19 0 20 0.000 0 1 -1 0 0 5
	 601 648 941 648 941 665 601 665 601 648
-6
6 601 697 941 730
2 2 0 0 0 38 19 0 20 0.000 0 1 -1 0 0 5
	 601 713 941 713 941 730 601 730 601 713
2 2 0 0 0 35 19 0 20 0.000 0 1 -1 0 0 5
	 601 697 941 697 941 713 601 713 601 697
-6
6 601 746 941 778
2 2 0 0 0 38 19 0 20 0.000 0 1 -1 0 0 5
	 601 762 941 762 941 778 601 778 601 762
2 2 0 0 0 35 19 0 20 0.000 0 1 -1 0 0 5
	 601 746 941 746 941 762 601 762 601 746
-6
6 601 795 941 827
2 2 0 0 0 38 19 0 20 0.000 0 1 -1 0 0 5
	 601 811 941 811 941 827 601 827 601 811
2 2 0 0 0 35 19 0 20 0.000 0 1 -1 0 0 5
	 601 795 941 795 941 811 601 811 601 795
-6
6 601 843 941 876
2 2 0 0 0 38 19 0 20 0.000 0 1 -1 0 0 5
	 601 859 941 859 941 876 601 876 601 859
2 2 0 0 0 35 19 0 20 0.000 0 1 -1 0 0 5
	 601 843 941 843 941 859 601 859 601 843
-6
-6
6 601 290 941 421
6 601 388 941 421
2 2 0 0 0 38 19 0 20 0.000 0 1 -1 0 0 5
	 601 404 941 404 941 421 601 421 601 404
2 2 0 0 0 35 19 0 20 0.000 0 1 -1 0 0 5
	 601 388 941 388 941 404 601 404 601 388
-6
6 601 339 941 372
2 2 0 0 0 38 19 0 20 0.000 0 1 -1 0 0 5
	 601 356 941 356 941 372 601 372 601 356
2 2 0 0 0 35 19 0 20 0.000 0 1 -1 0 0 5
	 601 339 941 339 941 356 601 356 601 339
-6
6 601 290 941 322
2 2 0 0 0 38 19 0 20 0.000 0 1 -1 0 0 5
	 601 306 941 306 941 322 601 322 601 306
2 2 0 0 0 35 19 0 20 0.000 0 1 -1 0 0 5
	 601 290 941 290 941 306 601 306 601 290
-6
-6
2 2 0 1 0 35 19 0 20 0.000 0 1 -1 0 0 5
	 552 925 990 925 990 990 552 990 552 925
2 1 0 1 0 37 19 0 20 0.000 0 1 -1 0 0 2
	 552 453 990 453
2 2 0 1 0 37 20 0 20 0.000 0 1 -1 0 0 5
	 552 225 990 225 990 990 552 990 552 225
-6
# Server box
6 2757 225 3195 990
6 2806 502 3146 876
6 2806 502 3146 534
2 2 0 0 0 38 19 0 20 0.000 0 1 -1 0 0 5
	 2806 518 3146 518 3146 534 2806 534 2806 518
2 2 0 0 0 35 19 0 20 0.000 0 1 -1 0 0 5
	 2806 502 3146 502 3146 518 2806 518 2806 502
-6
6 2806 550 3146 583
2 2 0 0 0 38 19 0 20 0.000 0 1 -1 0 0 5
	 2806 567 3146 567 3146 583 2806 583 2806 567
2 2 0 0 0 35 19 0 20 0.000 0 1 -1 0 0 5
	 2806 550 3146 550 3146 567 2806 567 2806 550
-6
6 2806 599 3146 632
2 2 0 0 0 38 19 0 20 0.000 0 1 -1 0 0 5
	 2806 616 3146 616 3146 632 2806 632 2806 616
2 2 0 0 0 35 19 0 20 0.000 0 1 -1 0 0 5
	 2806 599 3146 599 3146 616 2806 616 2806 599
-6
6 2806 648 3146 681
2 2 0 0 0 38 19 0 20 0.000 0 1 -1 0 0 5
	 2806 665 3146 665 3146 681 2806 681 2806 665
2 2 0 0 0 35 19 0 20 0.000 0 1 -1 0 0 5
	 2806 648 3146 648 3146 665 2806 665 2806 648
-6
6 2806 697 3146 730
2 2 0 0 0 38 19 0 20 0.000 0 1 -1 0 0 5
	 2806 713 3146 713 3146 730 2806 730 2806 713
2 2 0 0 0 35 19 0 20 0.000 0 1 -1 0 0 5
	 2806 697 3146 697 3146 713 2806 713 2806 697
-6
6 2806 746 3146 778
2 2 0 0 0 38 19 0 20 0.000 0 1 -1 0 0 5
	 2806 762 3146 762 3146 778 2806 778 2806 762
2 2 0 0 0 35 19 0 20 0.000 0 1 -1 0 0 5
	 2806 746 3146 746 3146 762 2806 762 2806 746
-6
6 2806 795 3146 827
2 2 0 0 0 38 19 0 20 0.000 0 1 -1 0 0 5
	 2806 811 3146 811 3146 827 2806 827 2806 811
2 2 0 0 0 35 19 0 20 0.000 0 1 -1 0 0 5
	 2806 795 3146 795 3146 811 2806 811 2806 795
-6
6 2806 843 3146 876
2 2 0 0 0 38 19 0 20 0.000 0 1 -1 0 0 5
	 2806 859 3146 859 3146 876 2806 876 2806 859
2 2 0 0 0 35 19 0 20 0.000 0 1 -1 0 0 5
	 2806 843 3146 843 3146 859 2806 859 2806 843
-6
-6
6 2806 290 3146 421
6 2806 388 3146 421
2 2 0 0 0 38 19 0 20 0.000 0 1 -1 0 0 5
	 2806 404 3146 404 3146 421 2806 421 2806 404
2 2 0 0 0 35 19 0 20 0.000 0 1 -1 0 0 5
	 2806 388 3146 388 3146 404 2806 404 2806 388
-6
6 2806 339 3146 372
2 2 0 0 0 38 19 0 20 0.000 0 1 -1 0 0 5
	 2806 356 3146 356 3146 372 2806 372 2806 356
2 2 0 0 0 35 19 0 20 0.000 0 1 -1 0 0 5
	 2806 339 3146 339 3146 356 2806 356 2806 339
-6
6 2806 290 3146 322
2 2 0 0 0 38 19 0 20 0.000 0 1 -1 0 0 5
	 2806 306 3146 306 3146 322 2806 322 2806 306
2 2 0 0 0 35 19 0 20 0.000 0 1 -1 0 0 5
	 2806 290 3146 290 3146 306 2806 306 2806 290
-6
-6
2 2 0 1 0 35 19 0 20 0.000 0 1 -1 0 0 5
	 2757 925 3195 925 3195 990 2757 990 2757 925
2 1 0 1 0 37 19 0 20 0.000 0 1 -1 0 0 2
	 2757 453 3195 453
2 2 0 1 0 37 20 0 20 0.000 0 1 -1 0 0 5
	 2757 225 3195 225 3195 990 2757 990 2757 225
-6
6 1395 112 2295 720
5 1 0 1 0 11 52 -1 30 0.000 0 0 0 0 1662.503 339.261 1474 429 1607 138 1871 350
5 1 0 1 0 11 53 -1 30 0.000 0 0 0 0 1938.006 309.921 1766 297 1924 138 2110 323
5 1 0 1 0 11 54 -1 30 0.000 0 0 0 0 2123.000 363.500 2004 271 2242 271 2004 456
5 1 0 1 0 11 55 -1 30 0.000 0 0 0 0 1951.000 482.000 2083 403 2030 614 1819 403
5 1 0 1 0 11 56 -1 30 0.000 0 1 0 0 1792.000 521.500 1660 376 1660 667 1924 376
5 1 0 1 0 11 57 -1 30 0.000 0 0 0 0 1567.000 478.735 1686 561 1448 561 1501 350
2 2 0 0 0 11 51 -1 30 0.000 0 0 -1 0 0 5
	 1554 297 2057 297 2057 535 1554 535 1554 297
-6
6 225 1080 720 1800
6 225 1080 675 1755
1 1 0 1 0 31 60 0 37 0.000 1 0.0000 450 1215 225 91 450 1215 675 1215
1 1 0 1 0 31 62 0 37 0.000 1 0.0000 450 1664 225 91 450 1664 675 1664
2 2 0 0 7 31 61 0 37 0.000 0 0 -1 0 0 5
	 225 1215 675 1215 675 1664 225 1664 225 1215
2 1 0 1 0 31 60 0 37 0.000 0 0 -1 0 0 2
	 225 1215 225 1664
2 1 0 1 0 31 60 0 37 0.000 0 0 -1 0 0 2
	 675 1215 675 1664
-6
6 270 1215 630 1620
2 1 0 1 0 -1 50 0 -1 0.000 0 0 -1 0 0 5
	 450 1215 360 1350 405 1440 360 1530 450 1620
2 1 0 1 0 -1 50 0 -1 0.000 0 0 -1 0 0 2
	 360 1350 270 1440
2 1 0 1 0 -1 50 0 -1 0.000 0 0 -1 0 0 2
	 360 1530 270 1620
2 1 0 1 0 -1 50 0 -1 0.000 0 0 -1 0 0 2
	 450 1215 540 1395
2 1 0 1 0 -1 50 0 -1 0.000 0 0 -1 0 0 3
	 540 1395 495 1485 540 1575
2 1 0 1 0 -1 50 0 -1 0.000 0 0 -1 0 0 2
	 540 1395 630 1485
2 1 0 1 0 -1 50 0 -1 0.000 0 0 -1 0 0 2
	 495 1485 495 1620
2 1 0 1 0 -1 50 0 -1 0.000 0 0 -1 0 0 2
	 450 1215 585 1260
2 1 0 1 0 -1 50 0 -1 0.000 0 0 -1 0 0 2
	 450 1215 450 1350
-6
6 270 1169 720 1800
1 1 0 1 0 0 65 0 20 0.000 1 0.0000 495 1260 225 91 495 1260 720 1260
1 1 0 1 0 0 67 0 20 0.000 1 0.0000 495 1709 225 91 495 1709 720 1709
2 2 0 0 7 0 66 0 20 0.000 0 0 -1 0 0 5
	 270 1260 720 1260 720 1709 270 1709 270 1260
2 1 0 1 0 0 65 0 20 0.000 0 0 -1 0 0 2
	 270 1260 270 1709
2 1 0 1 0 0 65 0 20 0.000 0 0 -1 0 0 2
	 720 1260 720 1709
-6
-6
6 2700 1080 3195 1800
6 2700 1080 3150 1755
1 1 0 1 0 31 60 0 37 0.000 1 0.0000 2925 1215 225 91 2925 1215 3150 1215
1 1 0 1 0 31 62 0 37 0.000 1 0.0000 2925 1664 225 91 2925 1664 3150 1664
2 2 0 0 7 31 61 0 37 0.000 0 0 -1 0 0 5
	 2700 1215 3150 1215 3150 1664 2700 1664 2700 1215
2 1 0 1 0 31 60 0 37 0.000 0 0 -1 0 0 2
	 2700 1215 2700 1664
2 1 0 1 0 31 60 0 37 0.000 0 0 -1 0 0 2
	 3150 1215 3150 1664
-6
6 2745 1215 3105 1620
2 1 0 1 0 -1 50 0 -1 0.000 0 0 -1 0 0 5
	 2925 1215 2835 1350 2880 1440 2835 1530 2925 1620
2 1 0 1 0 -1 50 0 -1 0.000 0 0 -1 0 0 2
	 2835 1350 2745 1440
2 1 0 1 0 -1 50 0 -1 0.000 0 0 -1 0 0 2
	 2835 1530 2745 1620
2 1 0 1 0 -1 50 0 -1 0.000 0 0 -1 0 0 2
	 2925 1215 3015 1395
2 1 0 1 0 -1 50 0 -1 0.000 0 0 -1 0 0 3
	 3015 1395 2970 1485 3015 1575
2 1 0 1 0 -1 50 0 -1 0.000 0 0 -1 0 0 2
	 3015 1395 3105 1485
2 1 0 1 0 -1 50 0 -1 0.000 0 0 -1 0 0 2
	 2970 1485 2970 1620
2 1 0 1 0 -1 50 0 -1 0.000 0 0 -1 0 0 2
	 2925 1215 3060 1260
2 1 0 1 0 -1 50 0 -1 0.000 0 0 -1 0 0 2
	 2925 1215 2925 1350
-6
6 2745 1169 3195 1800
1 1 0 1 0 0 65 0 20 0.000 1 0.0000 2970 1260 225 91 2970 1260 3195 1260
1 1 0 1 0 0 67 0 20 0.000 1 0.0000 2970 1709 225 91 2970 1709 3195 1709
2 2 0 0 7 0 66 0 20 0.000 0 0 -1 0 0 5
	 2745 1260 3195 1260 3195 1709 2745 1709 2745 1260
2 1 0 1 0 0 65 0 20 0.000 0 0 -1 0 0 2
	 2745 1260 2745 1709
2 1 0 1 0 0 65 0 20 0.000 0 0 -1 0 0 2
	 3195 1260 3195 1709
-6
-6
2 1 0 1 -1 -1 70 0 -1 0.000 0 0 -1 0 0 2
	 2205 360 2925 675
2 1 2 1 -1 -1 50 0 -1 3.000 0 0 -1 0 0 2
	 585 1260 1125 1665
2 1 2 1 -1 -1 50 0 -1 3.000 0 0 -1 0 0 2
	 1125 1665 2745 1440
2 1 0 1 -1 -1 70 0 -1 0.000 0 0 -1 0 0 2
	 900 675 1530 450
2 1 0 1 -1 -1 70 0 -1 0.000 0 0 -1 0 0 2
	 765 900 450 1125
2 1 0 1 -1 -1 70 0 -1 0.000 0 0 -1 0 0 2
	 765 900 1125 1575
2 1 0 1 -1 -1 70 0 -1 0.000 0 0 -1 0 0 2
	 2970 900 2925 1125
4 1 -1 50 0 16 10 0.0000 4 135 90 2655 315 B\001
4 1 -1 50 0 16 10 0.0000 4 135 90 1125 360 A\001
4 1 -1 40 0 17 10 0.0000 4 135 720 1800 450 Internet\001
