#FIG 3.2  Produced by xfig version 3.2.5c
Portrait
Center
Metric
A4      
100.00
Single
-2
1200 2
2 1 0 1 0 0 0 0 -1 0.000 0 0 0 0 0 2
	 5850 2700 6300 2700
2 2 0 1 0 0 0 0 -1 0.000 0 0 0 0 0 5
	 450 5400 450 5625 2025 5625 2025 5400 450 5400
2 2 0 1 0 0 0 0 -1 0.000 0 0 0 0 0 5
	 2250 5175 2250 5850 3600 5850 3600 5175 2250 5175
2 2 0 1 0 0 0 0 -1 0.000 0 0 0 0 0 5
	 2475 4275 3375 4275 3375 4725 2475 4725 2475 4275
2 2 0 1 0 0 0 0 -1 0.000 0 0 0 0 0 5
	 1350 4275 2025 4275 2025 4725 1350 4725 1350 4275
2 2 0 1 0 0 0 0 -1 0.000 0 0 0 0 0 5
	 225 4275 900 4275 900 4725 225 4725 225 4275
2 1 0 1 0 0 0 0 -1 0.000 0 0 0 0 0 2
	 2400 3825 3450 3825
2 1 0 1 0 0 0 0 -1 0.000 0 0 0 0 0 2
	 1275 3825 2100 3825
2 1 0 1 0 0 0 0 -1 0.000 0 0 0 0 0 2
	 150 3825 975 3825
2 1 0 1 0 0 0 0 -1 0.000 0 0 0 0 0 2
	 2400 3450 3450 3450
2 1 0 1 0 0 0 0 -1 0.000 0 0 0 0 0 2
	 1275 3450 2100 3450
2 1 0 1 0 0 0 0 -1 0.000 0 0 0 0 0 2
	 150 3450 975 3450
2 2 0 1 0 0 0 0 -1 0.000 0 0 0 0 0 5
	 3825 2475 4500 2475 4500 2925 3825 2925 3825 2475
2 2 0 1 0 0 0 0 -1 0.000 0 0 0 0 0 5
	 1350 2475 2025 2475 2025 2925 1350 2925 1350 2475
2 2 0 1 0 0 0 0 -1 0.000 0 0 0 0 0 5
	 2475 2475 3375 2475 3375 2925 2475 2925 2475 2475
2 2 0 1 0 0 0 0 -1 0.000 0 0 0 0 0 5
	 225 2475 900 2475 900 2925 225 2925 225 2475
2 2 0 1 0 0 0 0 -1 0.000 0 0 0 0 0 5
	 2250 1350 2250 2025 3600 2025 3600 1350 2250 1350
2 2 0 1 0 0 0 0 -1 0.000 0 0 0 0 0 5
	 4500 450 5400 450 5400 900 4500 900 4500 450
2 2 0 1 0 0 0 0 -1 0.000 0 0 0 0 0 5
	 2475 450 3375 450 3375 900 2475 900 2475 450
2 2 0 1 0 0 0 0 -1 0.000 0 0 0 0 0 5
	 450 450 1350 450 1350 900 450 900 450 450
2 1 0 1 0 0 0 0 -1 0.000 0 0 0 0 0 2
	 4725 3450 5850 3450
2 1 0 1 0 0 0 0 -1 0.000 0 0 0 0 0 2
	 4725 3825 5850 3825
2 1 0 1 0 0 0 0 -1 0.000 0 0 0 0 0 2
	 2925 5850 3825 6300
2 1 0 1 0 0 0 0 -1 0.000 0 0 0 0 0 2
	 2925 5850 2925 6300
2 1 0 1 0 0 0 0 -1 0.000 0 0 0 0 0 2
	 2925 5850 2025 6300
2 1 0 1 0 0 0 0 -1 0.000 0 0 0 0 0 2
	 2925 5850 1125 6300
2 1 0 1 0 0 0 0 -1 0.000 0 0 0 1 0 2
	1 1 1.00 45.00 90.00
	 2025 5475 2250 5475
2 1 0 1 0 0 0 0 -1 0.000 0 0 0 1 0 2
	1 1 1.00 45.00 90.00
	 600 4725 2430 5130
2 1 0 1 0 0 0 0 -1 0.000 0 0 0 1 0 2
	1 1 1.00 45.00 90.00
	 1725 4725 2850 5100
2 1 0 1 0 0 0 0 -1 0.000 0 0 0 0 1 2
	1 1 1.00 45.00 90.00
	 2925 5175 2925 4725
2 1 0 1 0 0 0 0 -1 0.000 0 0 0 1 0 2
	1 1 1.00 45.00 90.00
	 2925 3825 2925 4275
2 1 0 1 0 0 0 0 -1 0.000 0 0 0 1 0 2
	1 1 1.00 45.00 90.00
	 1725 3825 1725 4275
2 1 0 1 0 0 0 0 -1 0.000 0 0 0 1 0 2
	1 1 1.00 45.00 90.00
	 600 3825 600 4275
2 1 0 1 0 0 0 0 -1 0.000 0 0 0 1 0 2
	1 1 1.00 45.00 90.00
	 600 2925 600 3450
2 1 0 1 0 0 0 0 -1 0.000 0 0 0 1 0 2
	1 1 1.00 45.00 90.00
	 1725 2925 1725 3450
2 1 0 1 0 0 0 0 -1 0.000 0 0 0 1 0 2
	1 1 1.00 45.00 90.00
	 2925 2925 2925 3450
2 1 0 1 0 0 0 0 -1 0.000 0 0 0 1 0 2
	1 1 1.00 45.00 90.00
	 5250 3150 5250 3450
2 1 0 1 0 0 0 0 -1 0.000 0 0 0 1 0 2
	1 1 1.00 45.00 90.00
	 5250 2850 5250 3000
2 1 0 1 0 0 0 0 -1 0.000 0 0 0 1 0 2
	1 1 1.00 45.00 90.00
	 2925 2025 3825 2475
2 1 0 1 0 0 0 0 -1 0.000 0 0 0 1 0 2
	1 1 1.00 45.00 90.00
	 2925 2025 2925 2475
2 1 0 1 0 0 0 0 -1 0.000 0 0 0 1 0 2
	1 1 1.00 45.00 90.00
	 2925 2025 2025 2475
2 1 0 1 0 0 0 0 -1 0.000 0 0 0 1 0 2
	1 1 1.00 45.00 90.00
	 2925 2025 945 2475
2 1 0 1 0 0 0 0 -1 0.000 0 0 0 1 0 2
	1 1 1.00 45.00 90.00
	 2025 1650 2250 1650
2 1 0 1 0 0 0 0 -1 0.000 0 0 0 1 0 2
	1 1 1.00 45.00 90.00
	 900 900 2400 1275
2 1 0 1 0 0 0 0 -1 0.000 0 0 0 1 0 2
	1 1 1.00 45.00 90.00
	 2925 900 2925 1275
2 1 0 1 0 0 0 0 -1 0.000 0 0 0 1 0 2
	1 1 1.00 45.00 90.00
	 4950 900 3450 1275
2 1 0 1 0 0 0 0 -1 0.000 0 0 0 1 0 4
	1 1 1.00 45.00 90.00
	 5700 3075 6300 3075 6300 1650 3600 1650
2 2 0 1 0 0 0 0 -1 0.000 0 0 0 0 0 5
	 450 1575 450 1800 2025 1800 2025 1575 450 1575
2 1 0 1 0 0 0 0 -1 0.000 0 0 0 1 0 3
	1 1 1.00 45.00 90.00
	 4500 2565 5085 2565 5265 2700
4 1 0 0 0 16 8 0.0000 4 105 210 900 750 mail\001
4 1 0 0 0 16 8 0.0000 4 105 180 2925 750 elm\001
4 1 0 0 0 16 8 0.0000 4 105 285 4950 750 xmail\001
4 1 0 0 0 16 8 0.0000 4 105 480 2925 1725 sendmail\001
4 1 0 0 0 16 8 0.0000 4 120 840 1200 1725 /etc/sendmail.cf\001
4 1 0 0 0 16 8 0.0000 4 90 315 525 2775 X400\001
4 1 0 0 0 16 8 0.0000 4 90 255 1650 2775 uucp\001
4 1 0 0 0 16 8 0.0000 4 90 345 2925 2775 SMTP\001
4 1 0 0 0 16 8 0.0000 4 105 255 4125 2775 local\001
4 0 0 0 0 16 8 0.0000 4 105 465 4950 3150 .forward\001
4 1 0 0 0 16 8 0.0000 4 120 885 5250 3675 bo\356te aux lettres\001
4 1 0 0 0 16 8 0.0000 4 120 540 2925 3675 R\351seau IP\001
4 1 0 0 0 16 8 0.0000 4 135 600 1725 3675 Ligne s\351rie\001
4 1 0 0 0 16 8 0.0000 4 120 735 600 3675 R\351seau X400\001
4 1 0 0 0 16 8 0.0000 4 90 315 525 4575 X400\001
4 1 0 0 0 16 8 0.0000 4 90 255 1650 4575 uucp\001
4 1 0 0 0 16 8 0.0000 4 90 345 2925 4575 SMTP\001
4 1 0 0 0 16 8 0.0000 4 105 480 2925 5550 sendmail\001
4 1 0 0 0 16 8 0.0000 4 120 840 1200 5550 /etc/sendmail.cf\001
4 1 0 0 0 16 8 0.0000 4 150 3000 2925 6525 Le routage continue alors jusqu'\340 la destination finale...\001
4 0 0 0 0 16 8 0.0000 4 120 585 4950 2790 /etc/aliases\001
