#FIG 3.2  Produced by xfig version 3.2.5b
Portrait
Center
Metric
A4      
100.00
Single
-3
1200 2
0 32 #c6b797
0 33 #eff8ff
0 34 #dccba6
0 35 #404040
0 36 #808080
0 37 #c0c0c0
0 38 #e0e0e0
0 39 #8e8f8e
0 40 #aaaaaa
0 41 #555555
0 42 #8e8e8e
0 43 #d7d7d7
0 44 #aeaeae
0 45 #bebebe
0 46 #515151
0 47 #e7e3e7
0 48 #000049
0 49 #797979
0 50 #303430
0 51 #414141
0 52 #c7b696
0 53 #414541
0 54 #cccccc
0 55 #c7c3c7
0 56 #444444
0 57 #868686
0 58 #c7c7c7
0 59 #e7e7e7
0 60 #f7f7f7
0 61 #9e9e9e
0 62 #717571
0 63 #effbff
0 64 #666666
0 65 #868286
0 66 #dd9d93
0 67 #f1ece0
0 68 #c3c3c3
0 69 #e2c8a8
0 70 #e1e1e1
0 71 #d2d2d2
0 72 #ededed
0 73 #da7a1a
0 74 #f1e41a
0 75 #887dc2
0 76 #d6d6d6
0 77 #8c8ca5
0 78 #4a4a4a
0 79 #5a5a5a
0 80 #636363
0 81 #b79b73
0 82 #4193ff
0 83 #bf703b
0 84 #db7700
0 85 #dab800
0 86 #006400
0 87 #5a6b3b
0 88 #d3d3d3
0 89 #8e8ea4
0 90 #f3b95d
0 91 #89996b
0 92 #646464
0 93 #b7e6ff
0 94 #86c0ec
0 95 #bdbdbd
0 96 #d39552
0 97 #98d2fe
0 98 #95ce99
0 99 #b5157d
0 100 #eeeeee
0 101 #848484
0 102 #7b7b7b
0 103 #005a00
0 104 #e77373
0 105 #ffcb31
0 106 #29794a
0 107 #de2821
0 108 #2159c6
0 109 #f8f8f8
0 110 #e6e6e6
0 111 #a5b5c6
0 112 #6b6b94
0 113 #846b6b
0 114 #529c4a
0 115 #d6e7e7
0 116 #526363
0 117 #186b4a
0 118 #21845a
0 119 #8c6b6b
0 120 #8c9c6b
0 121 #f76b00
0 122 #5a6b39
0 123 #8c9c6b
0 124 #8c9c7b
0 125 #184a18
0 126 #adadad
0 127 #f7bd5a
0 128 #636b9c
0 129 #de0000
0 130 #adadad
0 131 #f7bd5a
0 132 #adadad
0 133 #f7bd5a
0 134 #636b9c
0 135 #526b29
0 136 #949494
0 137 #006300
0 138 #9ca5b5
0 139 #ff9400
0 140 #ff9400
0 141 #00634a
0 142 #7b844a
0 143 #63737b
0 144 #e7bd7b
0 145 #184a18
0 146 #f7bd5a
0 147 #dedede
0 148 #f3eed3
0 149 #f5ae5d
# Desktop computer
6 1800 675 2700 1815
6 1874 694 2636 1392
2 2 0 1 0 38 20 0 20 0.000 2 0 7 0 0 5
	 1874 694 2636 694 2636 1328 1874 1328 1874 694
2 2 0 0 0 35 19 0 22 0.000 1 0 -1 0 0 5
	 2477 757 2413 757 2413 1265 2477 1265 2477 757
2 2 0 0 0 35 19 0 24 0.000 1 0 -1 0 0 5
	 2413 757 2350 757 2350 1265 2413 1265 2413 757
2 2 0 0 0 35 19 0 26 0.000 1 0 -1 0 0 5
	 2350 757 2255 757 2255 1265 2350 1265 2350 757
2 2 0 0 0 35 19 0 28 0.000 1 0 -1 0 0 5
	 2255 757 2160 757 2160 1265 2255 1265 2255 757
2 2 0 0 0 35 19 0 30 0.000 1 0 -1 0 0 5
	 2160 757 2096 757 2096 1265 2160 1265 2160 757
2 2 0 0 0 35 19 0 33 0.000 1 0 -1 0 0 5
	 2096 757 2032 757 2032 1265 2096 1265 2096 757
2 2 0 0 0 35 19 0 33 0.000 1 0 -1 0 0 5
	 2032 757 1969 757 1969 1265 2032 1265 2032 757
2 2 0 1 0 36 20 0 20 0.000 2 0 7 0 0 5
	 2096 1328 2413 1328 2413 1360 2096 1360 2096 1328
2 2 0 1 0 36 20 0 20 0.000 2 0 -1 0 0 5
	 2064 1360 2445 1360 2445 1392 2064 1392 2064 1360
2 2 0 0 0 35 19 0 20 0.000 1 0 7 0 0 5
	 2540 757 2477 757 2477 1265 2540 1265 2540 757
3 5 0 0 0 37 18 0 20 0.000 0 0 0 4
	 1937 757 1937 1265 1969 1233 1969 789
	 0.000 0.000 0.000 0.000
3 5 0 0 0 7 18 0 20 0.000 0 0 0 5
	 1937 1265 1969 1233 2261 1246 2540 1233 2572 1265
	 0.000 0.000 -1.000 0.000 0.000
3 5 0 0 0 37 18 0 20 0.000 0 0 0 4
	 2572 757 2572 1265 2540 1233 2540 789
	 0.000 0.000 0.000 0.000
3 5 0 0 0 36 18 0 20 0.000 0 0 0 5
	 1937 757 1969 789 2261 776 2540 789 2572 757
	 0.000 0.000 -1.000 0.000 0.000
-6
6 1810 1614 2699 1805
2 3 0 1 0 38 20 0 20 0.000 2 0 7 0 0 7
	 1905 1614 2604 1614 2699 1773 2699 1805 1810 1805 1810 1773
	 1905 1614
2 1 0 1 0 37 19 0 20 0.000 2 0 -1 0 0 4
	 1810 1773 1810 1805 2699 1805 2699 1773
2 3 0 0 0 7 19 0 20 0.000 2 0 -1 0 0 5
	 1937 1646 1874 1741 2445 1741 2413 1646 1937 1646
2 2 0 0 0 36 18 0 20 0.000 2 0 -1 0 0 5
	 1874 1741 2445 1741 2445 1753 1874 1753 1874 1741
2 3 0 0 0 37 18 0 20 0.000 2 0 -1 0 0 9
	 1925 1646 1874 1741 1969 1741 1982 1710 1960 1710 1973 1678
	 1952 1678 1969 1646 1925 1646
2 3 0 0 0 37 18 0 20 0.000 2 0 -1 0 0 10
	 2445 1741 2350 1741 2350 1709 2371 1710 2368 1678 2382 1678
	 2386 1678 2380 1646 2420 1646 2445 1741
2 3 0 0 0 7 19 0 20 0.000 2 0 -1 0 0 5
	 2572 1646 2445 1646 2477 1741 2636 1741 2572 1646
2 3 0 0 0 37 18 0 20 0.000 2 0 -1 0 0 7
	 2636 1741 2607 1741 2572 1665 2451 1665 2445 1646 2585 1646
	 2636 1741
2 2 0 0 0 36 18 0 20 0.000 2 0 -1 0 0 5
	 2477 1741 2636 1741 2636 1752 2477 1752 2477 1741
2 3 0 0 0 36 18 0 20 0.000 2 0 -1 0 0 5
	 2477 1742 2476 1753 2444 1655 2445 1647 2477 1742
-6
6 1889 1392 2620 1583
6 2360 1425 2582 1488
6 2360 1425 2582 1488
2 1 0 1 36 -1 19 0 -1 0.000 2 0 -1 0 0 5
	 2360 1457 2360 1441 2428 1441 2428 1425 2513 1425
2 1 0 1 36 -1 19 0 -1 0.000 2 0 -1 0 0 3
	 2428 1488 2428 1457 2513 1457
2 1 0 1 36 -1 19 0 -1 0.000 2 0 -1 0 0 2
	 2513 1441 2582 1441
2 1 0 1 7 -1 19 0 -1 0.000 2 0 -1 0 0 2
	 2513 1425 2513 1441
2 1 0 1 7 -1 19 0 -1 0.000 2 0 -1 0 0 2
	 2360 1457 2428 1457
2 1 0 1 7 -1 19 0 -1 0.000 2 0 -1 0 0 5
	 2428 1488 2513 1488 2513 1457 2582 1457 2582 1441
2 1 0 1 36 -1 19 0 -1 0.000 2 0 -1 0 0 3
	 2530 1488 2564 1488 2564 1473
2 1 0 1 7 -1 19 0 -1 0.000 2 0 -1 0 0 3
	 2530 1488 2530 1473 2564 1473
-6
-6
2 2 0 1 0 35 20 0 20 0.000 2 0 -1 0 0 5
	 1889 1583 1985 1583 1985 1566 1889 1566 1889 1583
2 2 0 1 0 35 20 0 20 0.000 2 0 -1 0 0 5
	 2524 1583 2620 1583 2620 1566 2524 1566 2524 1583
2 2 0 1 0 38 20 0 20 0.000 2 0 -1 0 0 5
	 1889 1392 2620 1392 2620 1567 1889 1567 1889 1392
-6
-6
# Server box
6 4050 225 5186 2205
6 4176 941 5060 1910
6 4176 941 5060 1025
2 2 0 0 0 38 19 0 20 0.000 0 1 -1 0 0 5
	 4176 983 5060 983 5060 1025 4176 1025 4176 983
2 2 0 0 0 35 19 0 20 0.000 0 1 -1 0 0 5
	 4176 941 5060 941 5060 983 4176 983 4176 941
-6
6 4176 1068 5060 1152
2 2 0 0 0 38 19 0 20 0.000 0 1 -1 0 0 5
	 4176 1109 5060 1109 5060 1152 4176 1152 4176 1109
2 2 0 0 0 35 19 0 20 0.000 0 1 -1 0 0 5
	 4176 1068 5060 1068 5060 1109 4176 1109 4176 1068
-6
6 4176 1194 5060 1278
2 2 0 0 0 38 19 0 20 0.000 0 1 -1 0 0 5
	 4176 1236 5060 1236 5060 1278 4176 1278 4176 1236
2 2 0 0 0 35 19 0 20 0.000 0 1 -1 0 0 5
	 4176 1194 5060 1194 5060 1236 4176 1236 4176 1194
-6
6 4176 1320 5060 1404
2 2 0 0 0 38 19 0 20 0.000 0 1 -1 0 0 5
	 4176 1362 5060 1362 5060 1404 4176 1404 4176 1362
2 2 0 0 0 35 19 0 20 0.000 0 1 -1 0 0 5
	 4176 1320 5060 1320 5060 1362 4176 1362 4176 1320
-6
6 4176 1447 5060 1531
2 2 0 0 0 38 19 0 20 0.000 0 1 -1 0 0 5
	 4176 1489 5060 1489 5060 1531 4176 1531 4176 1489
2 2 0 0 0 35 19 0 20 0.000 0 1 -1 0 0 5
	 4176 1447 5060 1447 5060 1489 4176 1489 4176 1447
-6
6 4176 1573 5060 1657
2 2 0 0 0 38 19 0 20 0.000 0 1 -1 0 0 5
	 4176 1615 5060 1615 5060 1657 4176 1657 4176 1615
2 2 0 0 0 35 19 0 20 0.000 0 1 -1 0 0 5
	 4176 1573 5060 1573 5060 1615 4176 1615 4176 1573
-6
6 4176 1699 5060 1783
2 2 0 0 0 38 19 0 20 0.000 0 1 -1 0 0 5
	 4176 1742 5060 1742 5060 1783 4176 1783 4176 1742
2 2 0 0 0 35 19 0 20 0.000 0 1 -1 0 0 5
	 4176 1699 5060 1699 5060 1742 4176 1742 4176 1699
-6
6 4176 1826 5060 1910
2 2 0 0 0 38 19 0 20 0.000 0 1 -1 0 0 5
	 4176 1868 5060 1868 5060 1910 4176 1910 4176 1868
2 2 0 0 0 35 19 0 20 0.000 0 1 -1 0 0 5
	 4176 1826 5060 1826 5060 1868 4176 1868 4176 1826
-6
-6
6 4176 394 5060 730
6 4176 646 5060 730
2 2 0 0 0 38 19 0 20 0.000 0 1 -1 0 0 5
	 4176 688 5060 688 5060 730 4176 730 4176 688
2 2 0 0 0 35 19 0 20 0.000 0 1 -1 0 0 5
	 4176 646 5060 646 5060 688 4176 688 4176 646
-6
6 4176 520 5060 604
2 2 0 0 0 38 19 0 20 0.000 0 1 -1 0 0 5
	 4176 562 5060 562 5060 604 4176 604 4176 562
2 2 0 0 0 35 19 0 20 0.000 0 1 -1 0 0 5
	 4176 520 5060 520 5060 562 4176 562 4176 520
-6
6 4176 394 5060 478
2 2 0 0 0 38 19 0 20 0.000 0 1 -1 0 0 5
	 4176 436 5060 436 5060 478 4176 478 4176 436
2 2 0 0 0 35 19 0 20 0.000 0 1 -1 0 0 5
	 4176 394 5060 394 5060 436 4176 436 4176 394
-6
-6
2 2 0 1 0 35 19 0 20 0.000 0 1 -1 0 0 5
	 4050 2036 5186 2036 5186 2205 4050 2205 4050 2036
2 1 0 1 0 37 19 0 20 0.000 0 1 -1 0 0 2
	 4050 815 5186 815
2 2 0 1 0 37 20 0 20 0.000 0 1 -1 0 0 5
	 4050 225 5186 225 5186 2205 4050 2205 4050 225
-6
# An icon for a file, a disk or a SGBD
# drawn by P. David
6 675 225 1395 1232
1 1 0 1 0 7 49 0 20 0.000 1 0.0000 1036 370 361 145 1036 370 1395 370
1 1 0 1 0 7 51 0 20 0.000 1 0.0000 1036 1087 361 145 1036 1087 1395 1087
2 2 0 1 7 7 50 0 20 0.000 0 0 -1 0 0 5
	 675 370 1395 370 1395 1087 675 1087 675 370
2 1 0 1 0 7 49 0 -1 0.000 0 0 -1 0 0 2
	 675 370 675 1087
2 1 0 1 0 7 49 0 -1 0.000 0 0 -1 0 0 2
	 1395 370 1395 1087
-6
# An icon for a file, a disk or a SGBD
# drawn by P. David
6 675 1350 1395 2357
1 1 0 1 0 7 49 0 20 0.000 1 0.0000 1036 1495 361 145 1036 1495 1395 1495
1 1 0 1 0 7 51 0 20 0.000 1 0.0000 1036 2212 361 145 1036 2212 1395 2212
2 2 0 1 7 7 50 0 20 0.000 0 0 -1 0 0 5
	 675 1495 1395 1495 1395 2212 675 2212 675 1495
2 1 0 1 0 7 49 0 -1 0.000 0 0 -1 0 0 2
	 675 1495 675 2212
2 1 0 1 0 7 49 0 -1 0.000 0 0 -1 0 0 2
	 1395 1495 1395 2212
-6
# An icon for a file, a disk or a SGBD
# drawn by P. David
6 5625 675 6345 1682
1 1 0 1 0 7 49 0 20 0.000 1 0.0000 5986 820 361 145 5986 820 6345 820
1 1 0 1 0 7 51 0 20 0.000 1 0.0000 5986 1537 361 145 5986 1537 6345 1537
2 2 0 1 7 7 50 0 20 0.000 0 0 -1 0 0 5
	 5625 820 6345 820 6345 1537 5625 1537 5625 820
2 1 0 1 0 7 49 0 -1 0.000 0 0 -1 0 0 2
	 5625 820 5625 1537
2 1 0 1 0 7 49 0 -1 0.000 0 0 -1 0 0 2
	 6345 820 6345 1537
-6
2 1 0 1 0 7 80 -1 -1 0.000 0 0 -1 0 0 2
	 1350 675 1890 990
2 1 0 1 0 7 80 -1 -1 0.000 0 0 -1 0 0 2
	 1350 1845 1890 1080
2 1 0 1 0 7 80 -1 -1 0.000 0 0 -1 0 0 2
	 5130 1125 5670 1125
2 1 0 1 0 7 80 -1 -1 0.000 0 0 -1 1 0 4
	1 1 1.00 60.00 120.00
	 2250 1890 2250 2475 4635 2475 4635 2250
4 1 0 10 -1 16 8 0.0000 6 105 270 1035 675 clef \001
4 1 0 10 -1 16 8 0.0000 6 135 510 1035 840 publique\001
4 1 0 10 -1 16 8 0.0000 6 105 225 1035 1800 clef\001
4 1 0 10 -1 16 8 0.0000 6 135 375 1035 1965 priv\351e\001
4 1 0 10 -1 16 8 0.0000 6 105 300 5985 1125 clefs\001
4 1 0 10 -1 16 8 0.0000 6 105 645 5985 1290 autoris\351es\001
4 1 0 80 -1 16 10 0.0000 6 165 2055 3510 2430 sign(paquet, sid, clef priv\351e)\001
