#FIG 3.2
Portrait
Center
Metric
A4      
100.00
Single
-2
1200 2
6 1755 3825 3645 3960
6 1755 3825 3645 3960
4 1 -1 0 0 16 10 0.0000 4 120 60 3600 3960 t\001
4 1 -1 0 0 16 10 0.0000 4 120 60 1800 3960 t\001
-6
-6
2 1 0 1 -1 -1 0 0 -1 0.000 0 0 -1 1 0 2
	1 1 1.00 45.00 90.00
	 1845 1125 3555 1575
2 1 0 1 -1 -1 0 0 -1 0.000 0 0 -1 1 0 2
	1 1 1.00 45.00 90.00
	 3555 1800 1845 2250
2 1 0 1 -1 -1 0 0 -1 0.000 0 0 -1 1 0 2
	1 1 1.00 45.00 90.00
	 1800 900 1800 3825
2 1 0 1 -1 -1 0 0 -1 0.000 0 0 7 1 0 2
	1 1 1.00 45.00 90.00
	 3600 900 3600 3825
2 1 0 1 -1 -1 0 0 -1 0.000 0 0 -1 1 0 2
	1 1 1.00 45.00 90.00
	 1845 3150 3555 3600
2 1 0 1 -1 -1 0 0 -1 0.000 0 0 -1 1 0 2
	1 1 1.00 45.00 90.00
	 3555 2482 1845 2932
4 0 0 50 0 20 8 0.0000 4 105 1110 1890 1125 IAC WILL Term-Type\001
4 0 0 50 0 20 8 0.0000 4 120 1980 1890 3150 IAC SB Term-Type IS vt100 IAC SE\001
4 2 0 50 0 20 8 0.0000 4 105 1005 3465 1800 IAC DO Term-Type\001
4 2 0 50 0 20 8 0.0000 4 105 1845 3465 2475 IAC SB Term-Type SEND IAC SE\001
