#FIG 3.2  Produced by xfig version 3.2.5c
Landscape
Center
Metric
A4      
100.00
Single
-2
1200 2
0 32 #c6b797
0 33 #eff8ff
0 34 #dccba6
0 35 #404040
0 36 #808080
0 37 #c0c0c0
0 38 #e0e0e0
0 39 #8e8f8e
0 40 #aaaaaa
0 41 #555555
0 42 #c7c3c7
0 43 #565151
0 44 #8e8e8e
0 45 #d7d7d7
0 46 #85807d
0 47 #d2d2d2
0 48 #3a3a3a
0 49 #4573aa
0 50 #aeaeae
0 51 #7b79a5
0 52 #444444
0 53 #73758c
0 54 #f7f7f7
0 55 #414541
0 56 #635dce
0 57 #bebebe
0 58 #515151
0 59 #e7e3e7
0 60 #000049
0 61 #797979
0 62 #303430
0 63 #414141
0 64 #c7b696
0 65 #c7c7c7
0 66 #717571
0 67 #868286
0 68 #717171
0 69 #9e9e9e
0 70 #aeaaae
0 71 #757575
0 72 #f3f3f3
0 73 #666666
0 74 #868686
0 75 #e7e7e7
0 76 #effbff
0 77 #cccccc
0 78 #909090
0 79 #e6e4ce
0 80 #9b9b9b
0 81 #ce9100
0 82 #f762aa
0 83 #7070ff
0 84 #5f5f5f
0 85 #e2e2ee
0 86 #94949a
0 87 #dbdbdb
0 88 #a1a1b7
0 89 #9c0000
0 90 #ededed
0 91 #86acff
0 92 #fff2d3
0 93 #ffe4ae
0 94 #ffd279
0 95 #cfcfcf
0 96 #999999
0 97 #b2b2b2
0 98 #000000
0 99 #ffffff
0 100 #dd9d93
0 101 #f1ece0
0 102 #c3c3c3
0 103 #e2c8a8
0 104 #e1e1e1
0 105 #da7a1a
0 106 #f1e41a
0 107 #887dc2
0 108 #d6d6d6
0 109 #8c8ca5
0 110 #4a4a4a
0 111 #5a5a5a
0 112 #636363
0 113 #b79b73
0 114 #4193ff
0 115 #bf703b
0 116 #db7700
0 117 #dab800
0 118 #006400
0 119 #5a6b3b
0 120 #d3d3d3
0 121 #8e8ea4
0 122 #f3b95d
0 123 #89996b
0 124 #646464
0 125 #b7e6ff
0 126 #86c0ec
0 127 #bdbdbd
0 128 #d39552
0 129 #98d2fe
0 130 #8c6b6b
0 131 #8c9c6b
0 132 #f76b00
0 133 #5a6b39
0 134 #8c9c6b
0 135 #8c9c7b
0 136 #184a18
0 137 #adadad
0 138 #f7bd5a
0 139 #636b9c
0 140 #de0000
0 141 #adadad
0 142 #f7bd5a
0 143 #adadad
0 144 #f7bd5a
0 145 #636b9c
0 146 #526b29
0 147 #949494
0 148 #006300
0 149 #9ca5b5
0 150 #ff9400
0 151 #ff9400
0 152 #00634a
0 153 #7b844a
0 154 #63737b
0 155 #e7bd7b
0 156 #184a18
0 157 #f7bd5a
0 158 #dedede
0 159 #f3eed3
0 160 #f5ae5d
0 161 #95ce99
0 162 #b5157d
0 163 #eeeeee
0 164 #848484
0 165 #7b7b7b
0 166 #005a00
0 167 #e77373
0 168 #ffcb31
0 169 #29794a
0 170 #de2821
0 171 #2159c6
0 172 #f8f8f8
0 173 #e6e6e6
0 174 #a5b5c6
0 175 #6b6b94
0 176 #846b6b
0 177 #529c4a
0 178 #d6e7e7
0 179 #526363
0 180 #186b4a
0 181 #21845a
6 2700 450 3600 2070
6 2700 1530 3600 2070
2 2 0 1 0 7 50 -1 -1 0.000 0 0 -1 0 0 5
	 2700 1530 3600 1530 3600 2070 2700 2070 2700 1530
2 1 0 1 0 7 50 -1 -1 0.000 0 0 -1 0 0 2
	 2700 1800 3600 1800
2 1 0 1 0 7 50 -1 -1 0.000 0 0 -1 0 0 2
	 3150 1800 3150 2070
2 1 0 1 0 7 50 -1 -1 0.000 0 0 -1 0 0 3
	 3060 1530 3150 1800 3240 1530
4 1 0 50 -1 16 7 0.0000 4 90 330 2925 1710 802.11\001
4 1 0 50 -1 16 7 0.0000 4 90 165 3375 1710 Eth\001
4 1 0 50 -1 16 7 0.0000 4 120 255 2925 1980 Phys\001
4 1 0 50 -1 16 7 0.0000 4 120 255 3375 1980 Phys\001
-6
# Microwave dish
# drawn by W. Chimiak
6 2745 450 3600 1530
5 1 0 1 -1 7 0 0 10 0.000 0 0 0 0 2981.416 706.666 3535 473 3406 1130 2749 1259
2 1 0 1 -1 7 1 0 -1 0.000 0 0 -1 0 0 3
	 3457 1376 3406 1127 3223 1383
2 1 0 1 -1 7 1 0 -1 0.000 0 0 -1 0 0 3
	 3398 1361 3223 1251 3041 1376
2 2 0 1 -1 7 1 0 0 0.000 0 0 -1 0 0 5
	 3574 1390 2924 1390 2924 1486 3574 1486 3574 1390
2 1 0 1 -1 7 1 0 -1 0.000 0 0 -1 0 0 3
	 3223 763 3056 763 3056 930
2 1 0 1 -1 7 1 0 -1 0.000 0 0 -1 0 0 2
	 3143 850 2873 580
2 1 0 3 -1 7 1 0 -1 0.000 0 0 -1 0 0 2
	 2982 697 2873 587
-6
-6
# Server box
6 4950 540 5828 2070
6 5047 1094 5730 1842
6 5047 1094 5730 1158
2 2 0 0 0 38 19 0 20 0.000 0 1 -1 0 0 5
	 5047 1126 5730 1126 5730 1158 5047 1158 5047 1126
2 2 0 0 0 35 19 0 20 0.000 0 1 -1 0 0 5
	 5047 1094 5730 1094 5730 1126 5047 1126 5047 1094
-6
6 5047 1191 5730 1256
2 2 0 0 0 38 19 0 20 0.000 0 1 -1 0 0 5
	 5047 1223 5730 1223 5730 1256 5047 1256 5047 1223
2 2 0 0 0 35 19 0 20 0.000 0 1 -1 0 0 5
	 5047 1191 5730 1191 5730 1223 5047 1223 5047 1191
-6
6 5047 1289 5730 1354
2 2 0 0 0 38 19 0 20 0.000 0 1 -1 0 0 5
	 5047 1321 5730 1321 5730 1354 5047 1354 5047 1321
2 2 0 0 0 35 19 0 20 0.000 0 1 -1 0 0 5
	 5047 1289 5730 1289 5730 1321 5047 1321 5047 1289
-6
6 5047 1387 5730 1451
2 2 0 0 0 38 19 0 20 0.000 0 1 -1 0 0 5
	 5047 1419 5730 1419 5730 1451 5047 1451 5047 1419
2 2 0 0 0 35 19 0 20 0.000 0 1 -1 0 0 5
	 5047 1387 5730 1387 5730 1419 5047 1419 5047 1387
-6
6 5047 1484 5730 1549
2 2 0 0 0 38 19 0 20 0.000 0 1 -1 0 0 5
	 5047 1516 5730 1516 5730 1549 5047 1549 5047 1516
2 2 0 0 0 35 19 0 20 0.000 0 1 -1 0 0 5
	 5047 1484 5730 1484 5730 1516 5047 1516 5047 1484
-6
6 5047 1582 5730 1647
2 2 0 0 0 38 19 0 20 0.000 0 1 -1 0 0 5
	 5047 1614 5730 1614 5730 1647 5047 1647 5047 1614
2 2 0 0 0 35 19 0 20 0.000 0 1 -1 0 0 5
	 5047 1582 5730 1582 5730 1614 5047 1614 5047 1582
-6
6 5047 1679 5730 1744
2 2 0 0 0 38 19 0 20 0.000 0 1 -1 0 0 5
	 5047 1712 5730 1712 5730 1744 5047 1744 5047 1712
2 2 0 0 0 35 19 0 20 0.000 0 1 -1 0 0 5
	 5047 1679 5730 1679 5730 1712 5047 1712 5047 1679
-6
6 5047 1777 5730 1842
2 2 0 0 0 38 19 0 20 0.000 0 1 -1 0 0 5
	 5047 1809 5730 1809 5730 1842 5047 1842 5047 1809
2 2 0 0 0 35 19 0 20 0.000 0 1 -1 0 0 5
	 5047 1777 5730 1777 5730 1809 5047 1809 5047 1777
-6
-6
6 5047 670 5730 930
6 5047 866 5730 930
2 2 0 0 0 38 19 0 20 0.000 0 1 -1 0 0 5
	 5047 898 5730 898 5730 930 5047 930 5047 898
2 2 0 0 0 35 19 0 20 0.000 0 1 -1 0 0 5
	 5047 866 5730 866 5730 898 5047 898 5047 866
-6
6 5047 768 5730 833
2 2 0 0 0 38 19 0 20 0.000 0 1 -1 0 0 5
	 5047 801 5730 801 5730 833 5047 833 5047 801
2 2 0 0 0 35 19 0 20 0.000 0 1 -1 0 0 5
	 5047 768 5730 768 5730 801 5047 801 5047 768
-6
6 5047 670 5730 735
2 2 0 0 0 38 19 0 20 0.000 0 1 -1 0 0 5
	 5047 703 5730 703 5730 735 5047 735 5047 703
2 2 0 0 0 35 19 0 20 0.000 0 1 -1 0 0 5
	 5047 670 5730 670 5730 703 5047 703 5047 670
-6
-6
2 2 0 1 0 35 19 0 20 0.000 0 1 -1 0 0 5
	 4950 1940 5828 1940 5828 2070 4950 2070 4950 1940
2 1 0 1 0 37 19 0 20 0.000 0 1 -1 0 0 2
	 4950 996 5828 996
2 2 0 1 0 37 20 0 20 0.000 0 1 -1 0 0 5
	 4950 540 5828 540 5828 2070 4950 2070 4950 540
-6
# A laptop
# drawn by P. David
6 360 810 1440 1503
2 2 0 0 0 7 60 -1 16 0.000 0 0 -1 0 0 5
	 476 848 1324 848 1324 1336 476 1336 476 848
2 3 0 0 0 7 60 -1 2 0.000 1 0 -1 0 0 5
	 476 1388 424 1439 1376 1439 1324 1388 476 1388
2 3 0 0 0 7 61 -1 6 0.000 1 0 -1 0 0 5
	 463 1374 1337 1374 1440 1477 360 1477 463 1374
2 2 0 0 0 7 60 -1 3 0.000 0 0 -1 0 0 5
	 360 1477 1440 1477 1440 1490 360 1490 360 1477
2 3 0 0 0 7 60 -1 3 0.000 1 0 -1 0 0 5
	 360 1490 398 1503 1402 1503 1440 1490 360 1490
2 3 0 0 0 7 60 -1 10 0.000 0 0 -1 0 0 5
	 799 1442 935 1442 945 1471 780 1471 799 1442
2 4 0 0 0 7 61 -1 3 0.000 0 0 1 0 0 5
	 1350 1374 450 1374 450 810 1350 810 1350 1374
-6
2 1 0 1 0 7 50 -1 -1 0.000 0 0 -1 1 0 2
	1 1 1.00 60.00 120.00
	 2700 3150 1260 3150
2 1 0 1 0 7 50 -1 -1 0.000 0 0 -1 1 0 2
	1 1 1.00 60.00 120.00
	 5040 2985 3600 2985
2 1 0 1 0 7 50 -1 -1 0.000 0 0 -1 1 0 2
	1 1 1.00 60.00 120.00
	 3600 2535 5040 2535
2 1 0 1 0 7 50 -1 -1 0.000 0 0 -1 1 0 2
	1 1 1.00 60.00 120.00
	 1260 2355 2700 2355
4 1 0 50 -1 16 10 0.0000 4 120 105 900 630 P\001
4 1 0 50 -1 16 10 0.0000 4 120 105 5400 360 S\001
4 1 0 50 -1 16 10 0.0000 4 120 210 3150 405 AP\001
4 0 0 50 -1 17 7 0.0000 4 90 390 1710 2295 Adr3=S\001
4 0 0 50 -1 17 7 0.0000 4 90 390 1710 3090 Adr3=S\001
4 0 0 50 -1 17 7 0.0000 4 90 405 1710 1995 Dst=AP\001
4 0 0 50 -1 17 7 0.0000 4 90 330 1710 2790 Dst=P\001
4 0 0 50 -1 17 7 0.0000 4 90 405 1710 2940 Src=AP\001
4 0 0 50 -1 17 7 0.0000 4 90 330 1710 2145 Src=P\001
4 0 0 50 -1 17 7 0.0000 4 90 330 4050 2775 Dst=P\001
4 1 0 50 -1 16 9 0.0000 4 105 90 4770 2475 2\001
4 1 0 50 -1 16 9 0.0000 4 105 90 2430 2295 1\001
4 1 0 50 -1 16 9 0.0000 4 105 90 1530 3105 4\001
4 1 0 50 -1 16 9 0.0000 4 105 90 3870 2925 3\001
4 0 0 50 -1 17 7 0.0000 4 90 330 4050 2325 Dst=S\001
4 0 0 50 -1 17 7 0.0000 4 90 330 4050 2475 Src=P\001
4 0 0 50 -1 17 7 0.0000 4 90 330 4050 2925 Src=S\001
