#FIG 3.2  Produced by xfig version 3.2.5b
Portrait
Center
Metric
A4      
100.00
Single
-3
1200 2
2 1 0 1 -1 -1 50 0 -1 0.000 0 0 -1 0 0 2
	 225 450 3825 450
2 1 0 1 -1 -1 50 0 -1 0.000 0 0 -1 0 0 2
	 2025 225 2025 675
2 1 0 1 -1 -1 50 0 -1 0.000 0 0 -1 0 0 2
	 225 675 3825 675
2 1 0 1 -1 -1 50 0 -1 0.000 0 0 -1 0 0 2
	 225 900 3825 900
2 1 0 1 -1 -1 50 0 -1 0.000 0 0 -1 0 0 2
	 225 1125 3825 1125
2 1 0 1 -1 -1 50 0 -1 0.000 0 0 -1 0 0 2
	 225 1575 3825 1575
2 1 0 1 -1 -1 50 0 -1 0.000 0 0 -1 0 0 2
	 225 225 225 1575
2 1 0 1 -1 -1 50 0 -1 0.000 0 0 -1 0 0 2
	 3825 225 3825 1575
2 1 0 1 -1 -1 50 0 -1 0.000 0 0 -1 0 0 2
	 225 225 3825 225
2 1 0 1 -1 -1 50 0 -1 0.000 0 0 -1 0 0 2
	 225 1350 3825 1350
2 1 0 1 -1 -1 50 0 -1 0.000 0 0 -1 0 0 2
	 1125 225 1125 450
2 1 0 1 0 7 50 -1 -1 0.000 0 0 -1 0 0 7
	 3870 675 3915 720 3915 1080 3960 1125 3915 1170 3915 1530
	 3870 1575
2 1 2 1 0 7 50 -1 -1 2.000 0 0 -1 0 0 2
	 2025 1620 2025 1800
4 0 -1 50 0 16 10 0.0000 4 120 90 225 180 0\001
4 0 -1 50 0 16 10 0.0000 4 120 90 675 180 4\001
4 0 -1 50 0 16 10 0.0000 4 120 90 1125 180 8\001
4 0 -1 50 0 16 10 0.0000 4 120 180 2025 180 16\001
4 0 -1 50 0 16 10 0.0000 4 120 180 2925 180 24\001
4 2 -1 50 0 16 10 0.0000 4 120 180 3825 180 31\001
4 1 -1 50 0 16 8 0.0000 4 90 75 2925 405 0\001
4 1 -1 50 0 16 8 0.0000 4 90 75 2925 630 0\001
4 1 -1 50 0 16 8 0.0000 4 105 585 2025 855 IP address\001
4 1 -1 50 0 16 8 0.0000 4 90 75 2025 1080 0\001
4 1 -1 50 0 16 8 0.0000 4 90 75 2025 1305 0\001
4 1 -1 50 0 16 8 0.0000 4 105 345 2025 1530 Metric\001
4 1 -1 50 0 16 8 0.0000 4 120 810 1125 630 Address family\001
4 1 -1 50 0 16 8 0.0000 4 105 555 675 405 Command\001
4 1 -1 50 0 16 8 0.0000 4 105 435 1575 405 Version\001
