#FIG 3.2  Produced by xfig version 3.2.5-alpha5
Landscape
Center
Metric
A4      
100.00
Single
-2
1200 2
6 450 4950 4050 5400
2 2 0 1 0 7 50 -1 -1 0.000 0 0 -1 0 0 5
	 2160 4950 1710 4950 1710 5400 2160 5400 2160 4950
2 2 0 1 0 7 50 -1 -1 0.000 0 0 -1 0 0 5
	 2340 4950 2790 4950 2790 5400 2340 5400 2340 4950
2 2 0 1 0 7 50 -1 -1 0.000 0 0 -1 0 0 5
	 2970 4950 3420 4950 3420 5400 2970 5400 2970 4950
2 2 0 1 0 7 50 -1 -1 0.000 0 0 -1 0 0 5
	 1530 4950 1080 4950 1080 5400 1530 5400 1530 4950
2 2 0 1 0 7 50 -1 -1 0.000 0 0 -1 0 0 5
	 900 4950 450 4950 450 5400 900 5400 900 4950
2 2 0 1 0 7 50 -1 -1 0.000 0 0 -1 0 0 5
	 4050 4950 3600 4950 3600 5400 4050 5400 4050 4950
4 1 0 50 -1 16 10 0.0000 6 120 360 675 5130 client\001
4 1 0 50 -1 16 10 0.0000 6 120 360 675 5325 MAC\001
4 1 0 50 -1 16 10 0.0000 6 90 435 1305 5130 server\001
4 1 0 50 -1 16 10 0.0000 6 120 360 1305 5325 MAC\001
4 1 0 50 -1 16 10 0.0000 6 120 360 1935 5130 client\001
4 1 0 50 -1 16 10 0.0000 6 120 345 1935 5325 write\001
4 1 0 50 -1 16 10 0.0000 6 90 435 2565 5130 server\001
4 1 0 50 -1 16 10 0.0000 6 120 345 2565 5325 write\001
4 1 0 50 -1 16 10 0.0000 6 120 360 3195 5130 client\001
4 1 0 50 -1 16 10 0.0000 6 120 150 3195 5325 IV\001
4 1 0 50 -1 16 10 0.0000 6 90 435 3825 5130 server\001
4 1 0 50 -1 16 10 0.0000 6 120 150 3825 5325 IV\001
-6
2 4 0 1 0 7 50 -1 -1 0.000 0 0 7 0 0 5
	 3150 1800 3150 1350 1350 1350 1350 1800 3150 1800
2 4 0 1 0 7 50 -1 -1 0.000 0 0 7 0 0 5
	 3150 3600 3150 3150 1350 3150 1350 3600 3150 3600
2 1 0 1 0 7 50 -1 -1 0.000 0 0 -1 1 0 2
	1 1 1.00 60.00 120.00
	 900 900 1800 1305
2 1 0 1 0 7 50 -1 -1 0.000 0 0 -1 1 0 2
	1 1 1.00 60.00 120.00
	 2250 900 2250 1305
2 1 0 1 0 7 50 -1 -1 0.000 0 0 -1 1 0 2
	1 1 1.00 60.00 120.00
	 3600 900 2700 1305
2 1 0 1 0 7 50 -1 -1 0.000 0 0 -1 1 0 3
	1 1 1.00 60.00 120.00
	 900 900 900 2700 1800 3105
2 1 0 1 0 7 50 -1 -1 0.000 0 0 -1 1 0 3
	1 1 1.00 60.00 120.00
	 3600 900 3600 2700 2700 3105
2 1 0 1 0 7 50 -1 -1 0.000 0 0 -1 1 0 2
	1 1 1.00 60.00 120.00
	 2250 1800 2250 2205
2 1 0 1 0 7 50 -1 -1 0.000 0 0 -1 1 0 2
	1 1 1.00 60.00 120.00
	 2250 2700 2250 3105
2 1 0 1 0 7 50 -1 -1 0.000 0 0 -1 1 0 2
	1 1 1.00 60.00 120.00
	 2250 3600 2250 4005
2 1 1 1 0 7 50 -1 -1 4.000 0 0 -1 0 0 2
	 3600 4500 4050 4950
2 2 0 1 0 7 50 -1 -1 0.000 1 0 -1 0 0 5
	 900 4050 3600 4050 3600 4500 900 4500 900 4050
2 1 1 1 0 7 50 -1 -1 4.000 1 0 -1 0 0 3
	 3600 4950 3150 4500 3420 4950
2 1 1 1 0 7 50 -1 -1 4.000 1 0 -1 0 0 3
	 2970 4950 2700 4500 2790 4950
2 1 1 1 0 7 50 -1 -1 4.000 1 0 -1 0 0 3
	 2340 4950 2250 4500 2160 4950
2 1 1 1 0 7 50 -1 -1 4.000 1 0 -1 0 0 3
	 1710 4950 1800 4500 1530 4950
2 1 1 1 0 7 50 -1 -1 4.000 1 0 -1 0 0 3
	 1080 4950 1350 4500 900 4950
2 1 1 1 0 7 50 -1 -1 4.000 1 0 -1 0 0 2
	 450 4950 900 4500
2 2 0 1 0 7 50 -1 -1 0.000 0 0 -1 0 0 5
	 1575 2250 2925 2250 2925 2700 1575 2700 1575 2250
2 2 0 1 0 7 50 -1 -1 0.000 0 0 -1 0 0 5
	 675 450 1125 450 1125 900 675 900 675 450
2 2 0 1 0 7 50 -1 -1 0.000 0 0 -1 0 0 5
	 3375 450 3825 450 3825 900 3375 900 3375 450
2 2 0 1 0 7 50 -1 -1 0.000 0 0 -1 0 0 5
	 1575 450 2925 450 2925 900 1575 900 1575 450
4 1 0 50 -1 16 10 0.0000 6 120 180 900 720 Rc\001
4 1 0 50 -1 16 10 0.0000 6 120 180 3600 720 Rs\001
4 1 0 50 -1 17 8 0.0000 6 150 1680 2250 4425 (taille n\351cessaire pour les clefs)\001
4 1 0 50 -1 17 10 0.0000 6 165 1530 2250 1620 calcul pseudo-al\351atoire\001
4 1 0 50 -1 17 10 0.0000 6 165 1530 2250 3420 calcul pseudo-al\351atoire\001
4 1 0 50 -1 16 10 0.0000 6 150 1230 2250 630 pre-master-secret\001
4 1 0 50 -1 17 8 0.0000 6 135 795 2250 825 (taille variable)\001
4 1 0 50 -1 16 10 0.0000 6 120 945 2250 2430 master-secret\001
4 1 0 50 -1 17 8 0.0000 6 135 1215 2250 2625 (48 octets = 384 bits)\001
4 1 0 50 -1 16 10 0.0000 6 150 645 2250 4230 key-block\001
